<?xml version="1.0" standalone="no"?>
<!DOCTYPE svg PUBLIC "-//W3C//DTD SVG 1.1//EN" "http://www.w3.org/Graphics/SVG/1.1/DTD/svg11.dtd" >
<svg xmlns="http://www.w3.org/2000/svg">
<metadata></metadata>
<defs>
<font id="proxima_novalight" horiz-adv-x="1169" >
<font-face units-per-em="2048" ascent="1618" descent="-430" />
<missing-glyph horiz-adv-x="530" />
<glyph unicode="&#xfb01;" horiz-adv-x="978" d="M37 895v94h164v90q0 147 72.5 227t195.5 80q37 0 70.5 -7t62.5 -23l-33 -84q-18 10 -39.5 16t-50.5 6q-86 0 -129 -55t-43 -160v-90h201v-94h-201v-895h-106v895h-164zM680 1227q0 35 24.5 57.5t57.5 22.5q35 0 58.5 -22.5t23.5 -57.5t-23.5 -58.5t-58.5 -23.5 q-33 0 -57.5 23.5t-24.5 58.5zM709 0v989h106v-989h-106z" />
<glyph unicode="&#xfb02;" horiz-adv-x="978" d="M37 895v94h164v90q0 147 72.5 227t195.5 80q37 0 70.5 -7t62.5 -23l-33 -84q-18 10 -39.5 16t-50.5 6q-86 0 -129 -55t-43 -160v-90h201v-94h-201v-895h-106v895h-164zM709 0v1366h106v-1366h-106z" />
<glyph unicode="&#xfb03;" horiz-adv-x="1521" d="M37 895v94h164v90q0 145 71.5 226t196.5 81q53 0 97 -14t91 -55l-51 -74q-25 23 -55.5 37t-71.5 14q-86 0 -129 -55t-43 -160v-90h201v-94h-201v-895h-106v895h-164zM580 895v94h164v90q0 147 72.5 227t195.5 80q37 0 70.5 -7t62.5 -23l-33 -84q-18 10 -39.5 16t-50.5 6 q-86 0 -129 -55t-43 -160v-90h201v-94h-201v-895h-106v895h-164zM1222 1227q0 35 24.5 57.5t57.5 22.5q35 0 58.5 -22.5t23.5 -57.5t-23.5 -58.5t-58.5 -23.5q-33 0 -57.5 23.5t-24.5 58.5zM1251 0v989h106v-989h-106z" />
<glyph unicode="&#xfb04;" horiz-adv-x="1521" d="M37 895v94h164v90q0 145 71.5 226t196.5 81q53 0 97 -14t91 -55l-51 -74q-25 23 -55.5 37t-71.5 14q-86 0 -129 -55t-43 -160v-90h201v-94h-201v-895h-106v895h-164zM580 895v94h164v90q0 147 72.5 227t195.5 80q37 0 70.5 -7t62.5 -23l-33 -84q-18 10 -39.5 16t-50.5 6 q-86 0 -129 -55t-43 -160v-90h201v-94h-201v-895h-106v895h-164zM1251 0v1366h106v-1366h-106z" />
<glyph horiz-adv-x="0" />
<glyph horiz-adv-x="0" />
<glyph unicode="&#xd;" horiz-adv-x="0" />
<glyph unicode=" "  horiz-adv-x="530" />
<glyph unicode="&#x09;" horiz-adv-x="530" />
<glyph unicode="&#xa0;" horiz-adv-x="530" />
<glyph unicode="!" horiz-adv-x="448" d="M135 72q0 35 25.5 61.5t62.5 26.5t64.5 -27t27.5 -61q0 -37 -27.5 -63.5t-64.5 -26.5t-62.5 26.5t-25.5 63.5zM156 1366h137l-27 -1010h-84z" />
<glyph unicode="&#x22;" horiz-adv-x="649" d="M119 1313q0 31 20.5 52t53.5 21q31 0 52 -21.5t21 -51.5q0 -6 -2 -27.5t-5 -53.5t-7 -71l-8 -78q-8 -94 -21 -209h-61q-14 115 -23 209q-4 39 -7 78t-6 71t-5 53.5t-2 27.5zM383 1313q0 31 21.5 52t52.5 21t52 -21.5t21 -51.5q0 -6 -2 -27.5t-5 -53.5t-7 -71l-8 -78 q-8 -94 -21 -209h-61q-14 115 -23 209q-4 39 -7 78t-6 71t-5 53.5t-2 27.5z" />
<glyph unicode="#" horiz-adv-x="1185" d="M49 381l27 84h229l146 436h-232l25 84h235l125 381h96l-125 -381h240l125 381h98l-129 -381h228l-23 -84h-231l-148 -436h236l-25 -84h-237l-127 -381h-99l131 381h-241l-129 -381h-97l127 381h-225zM401 465h238l147 436h-239z" />
<glyph unicode="$" horiz-adv-x="1196" d="M98 193l76 88q61 -72 157.5 -129.5t227.5 -67.5v573q-78 23 -153.5 48.5t-134 66.5t-94.5 101.5t-36 150.5q0 80 33 145.5t89 112.5t132 73.5t164 30.5v187h94v-187q129 -10 228.5 -60t171.5 -130l-78 -86q-63 76 -145 117t-177 51v-516q80 -23 157 -51.5t137.5 -72.5 t98 -110.5t37.5 -165.5q0 -63 -21.5 -127.5t-71.5 -120t-133 -92t-204 -45.5v-182h-94v182q-156 8 -271.5 65.5t-189.5 150.5zM264 1030q0 -53 23.5 -92t63.5 -66.5t94.5 -47t113.5 -36.5v492q-63 -4 -117.5 -23.5t-93.5 -52.5t-61.5 -78t-22.5 -96zM653 84q88 6 147.5 34.5 t95.5 66.5t50.5 83t14.5 86q0 61 -25 105.5t-67 76t-98 54t-118 41.5v-547z" />
<glyph unicode="%" horiz-adv-x="1474" d="M70 1049q0 72 23.5 134t65.5 107t100 70.5t130 25.5t131.5 -25.5t101.5 -70.5t65.5 -107.5t23.5 -133.5q0 -72 -23.5 -132.5t-65.5 -105.5t-101.5 -69.5t-131.5 -24.5t-130 24.5t-100 69.5t-65.5 105.5t-23.5 132.5zM164 1049q0 -51 16.5 -97.5t46 -81t71.5 -55t91 -20.5 q51 0 93 20.5t72 55t46 80.5t16 98q0 53 -16 100t-46 82t-72 55.5t-93 20.5q-49 0 -91 -20.5t-71.5 -55.5t-46 -82t-16.5 -100zM262 0l873 1366h94l-875 -1366h-92zM764 309q0 72 23.5 134.5t66.5 107.5t101.5 70.5t129.5 25.5q70 0 129.5 -25.5t102.5 -70.5t66.5 -107.5 t23.5 -134.5t-23.5 -133t-66.5 -105t-102.5 -70t-129.5 -26q-72 0 -130 26t-101 70t-66.5 105.5t-23.5 132.5zM858 309q0 -53 16.5 -99t46 -80t71.5 -54.5t93 -20.5t92.5 20.5t71 54.5t46 80t16.5 99t-16.5 100.5t-46 82t-70.5 55t-93 20.5q-51 0 -93 -20.5t-71.5 -55 t-46 -82t-16.5 -100.5z" />
<glyph unicode="&#x26;" horiz-adv-x="1308" d="M86 348q0 82 25.5 144.5t67.5 111.5t97.5 87t114.5 71q-51 80 -81.5 159.5t-30.5 153.5q0 68 25.5 125t69.5 98t103.5 64.5t126.5 23.5q127 0 207 -66.5t80 -191.5q0 -78 -31 -134t-81 -101t-113.5 -82t-128.5 -72q45 -63 92 -118.5t84 -96.5q47 -53 92 -103t90 -97 q61 92 100 184t56 147l98 -41q-33 -82 -76 -178t-104 -186q59 -61 123.5 -121.5t140.5 -128.5h-160q-35 31 -81 74t-93 90q-74 -84 -172 -136.5t-229 -52.5q-84 0 -159 24t-131 71t-89 116.5t-33 161.5zM205 354q0 -70 24.5 -123t66.5 -89t96.5 -54t113.5 -18q100 0 180 47 t143 119q-63 66 -118.5 124t-85.5 95q-45 53 -92.5 110.5t-90.5 118.5q-49 -29 -92 -60.5t-75.5 -71.5t-51 -88t-18.5 -110zM393 1073q0 -59 26.5 -126.5t67.5 -133.5q57 31 111.5 61.5t95.5 67.5t65.5 81t24.5 101q0 86 -51 129t-127 43q-43 0 -82 -16t-68.5 -46t-46 -71 t-16.5 -90z" />
<glyph unicode="'" horiz-adv-x="382" d="M119 1313q0 31 20.5 52t53.5 21q31 0 52 -21.5t21 -51.5q0 -6 -2 -27.5t-5 -53.5t-7 -71l-8 -78q-8 -94 -21 -209h-61q-14 115 -23 209q-4 39 -7 78t-6 71t-5 53.5t-2 27.5z" />
<glyph unicode="(" horiz-adv-x="464" d="M94 498q0 248 69.5 476t203.5 429l63 -45q-49 -98 -89 -195.5t-68.5 -200t-44 -217t-15.5 -247.5t15.5 -247t44 -217.5t68.5 -199.5t89 -194l-63 -48q-133 201 -203 429.5t-70 476.5z" />
<glyph unicode=")" horiz-adv-x="464" d="M35 -360q49 98 89 194t68.5 199.5t44 217.5t15.5 247t-15.5 247.5t-44 217t-68.5 200t-89 195.5l63 45q133 -201 204 -429.5t71 -475.5q0 -248 -71 -476.5t-204 -429.5z" />
<glyph unicode="*" horiz-adv-x="686" d="M76 993l213 109l-213 108l39 68l200 -131l-10 239h76l-12 -239l202 131l37 -68l-211 -108l211 -109l-37 -67l-202 131l12 -240h-76l10 240l-200 -131z" />
<glyph unicode="+" horiz-adv-x="1015" d="M59 647v86h404v432h92v-432h401v-86h-401v-444h-92v444h-404z" />
<glyph unicode="," horiz-adv-x="448" d="M119 -201q49 35 81.5 88.5t37.5 100.5q-4 -2 -9 -2h-12q-37 0 -60.5 24.5t-23.5 61.5q0 35 25.5 61.5t62.5 26.5q41 0 73 -34t32 -97q0 -86 -44 -162t-104 -119z" />
<glyph unicode="-" horiz-adv-x="614" d="M61 446v99h492v-99h-492z" />
<glyph unicode="." horiz-adv-x="448" d="M133 72q0 35 26.5 61.5t63.5 26.5t64.5 -27t27.5 -61q0 -37 -27.5 -64.5t-64.5 -27.5t-63.5 27.5t-26.5 64.5z" />
<glyph unicode="/" horiz-adv-x="577" d="M0 -41l485 1448h93l-486 -1448h-92z" />
<glyph unicode="0" horiz-adv-x="1245" d="M119 682q0 123 27.5 248t87 226t155.5 165.5t236 64.5q137 0 232 -64.5t155.5 -165.5t88 -226t27.5 -248q0 -121 -27.5 -247t-88 -228.5t-155.5 -167t-232 -64.5q-139 0 -235.5 64.5t-156 167t-87 228.5t-27.5 247zM242 682q0 -104 19.5 -212t63.5 -194t117.5 -140 t182.5 -54q106 0 179 54t117 140t63.5 194t19.5 212q0 106 -18.5 212.5t-63.5 193t-118 139.5t-179 53q-109 0 -182.5 -53t-117.5 -139.5t-63.5 -193t-19.5 -212.5z" />
<glyph unicode="1" horiz-adv-x="630" d="M53 1049l301 317h107v-1366h-117v1206l-219 -233z" />
<glyph unicode="2" horiz-adv-x="1191" d="M115 0v96q174 141 317 263t244.5 231.5t158 211t56.5 199.5q0 74 -27.5 126.5t-71.5 86t-100.5 50t-111.5 16.5q-129 0 -224.5 -50t-150.5 -128l-80 74q72 98 190.5 154t264.5 56q76 0 152.5 -22.5t138 -68.5t100.5 -119.5t39 -174.5q0 -113 -55.5 -222t-152.5 -218.5 t-227.5 -222.5t-277.5 -232h719v-106h-901z" />
<glyph unicode="3" horiz-adv-x="1114" d="M66 203l79 69q57 -82 154.5 -136t228.5 -54q160 0 252 78t92 213q0 74 -28.5 126t-77.5 85.5t-116.5 49t-143.5 15.5h-76t-51 -2v111q16 -2 51 -2h76q68 0 130 15t110.5 47t77 81t28.5 117q0 63 -26.5 112.5t-71.5 83t-104.5 51t-125.5 17.5q-117 0 -204 -44t-162 -130 l-74 74q72 88 184.5 147t261.5 59q88 0 169 -23.5t140.5 -69.5t95.5 -113.5t36 -153.5q0 -78 -30 -135t-74 -95t-95 -59.5t-94 -29.5q45 -4 99 -27t101.5 -64t80 -103t32.5 -146t-30.5 -156t-90 -124t-145.5 -82t-195 -30q-168 0 -286.5 68t-177.5 160z" />
<glyph unicode="4" horiz-adv-x="1107" d="M72 373v104l606 889h158v-887h200v-106h-200v-373h-117v373h-647zM193 479h526v770z" />
<glyph unicode="5" horiz-adv-x="1191" d="M152 199l77 77q66 -94 158 -144t225 -50q74 0 136.5 25.5t108.5 69.5t71.5 104.5t25.5 130.5q0 78 -25.5 139t-70.5 104t-107.5 66.5t-136.5 23.5q-94 0 -175 -31.5t-156 -101.5l-88 37v717h788v-106h-672v-535q51 49 135 88t191 39q86 0 165 -27.5t139 -83t96 -137.5 t36 -188q0 -102 -37 -184t-99.5 -138.5t-146.5 -87.5t-178 -31q-172 0 -280.5 60.5t-179.5 163.5z" />
<glyph unicode="6" horiz-adv-x="1196" d="M119 682q0 131 28.5 258t91 226.5t162 159.5t240.5 60q133 0 220 -49t149 -125l-70 -86q-49 68 -117.5 111t-181.5 43q-111 0 -187.5 -53t-124.5 -138t-69.5 -193t-21.5 -216v-31.5t2 -32.5q20 35 60 75t92 74t114.5 56.5t132.5 22.5q92 0 172 -26.5t140.5 -81t94 -135.5 t33.5 -189q0 -84 -30.5 -163t-89 -139.5t-144 -97.5t-194.5 -37q-139 0 -234.5 58.5t-155 157t-86 226.5t-26.5 265zM246 506q6 -70 28.5 -144.5t66.5 -137t111.5 -102.5t163.5 -40q88 0 153 30.5t108 78t63.5 105.5t20.5 114q0 84 -26 145t-72 102t-108.5 61.5t-136.5 20.5 q-113 0 -213 -64.5t-159 -168.5z" />
<glyph unicode="7" horiz-adv-x="1028" d="M68 1260v106h895v-82l-584 -1284h-129l573 1260h-755z" />
<glyph unicode="8" d="M121 342q0 72 28.5 130t75.5 104.5t108.5 78t127.5 50.5q-61 16 -117.5 43.5t-101.5 68.5t-72 95.5t-27 121.5q0 90 39 156.5t101.5 109.5t141.5 64.5t161 21.5q80 0 158.5 -21.5t142 -64.5t102.5 -109.5t39 -156.5q0 -68 -26.5 -122t-71.5 -95t-101.5 -68.5 t-117.5 -43.5q66 -18 126 -50t107 -78.5t76 -104.5t29 -130q0 -84 -36 -151.5t-97.5 -114.5t-146.5 -74t-183 -27t-183.5 26t-147.5 74t-98 115.5t-36 151.5zM240 350q0 -61 28.5 -111.5t75.5 -85t110.5 -53t131.5 -18.5t130 18.5t110 53t77 85t29 111.5q0 78 -43 133.5 t-99.5 91t-115 54t-88.5 22.5q-31 -4 -89.5 -22.5t-115.5 -54t-99 -91t-42 -133.5zM262 1022q0 -72 39 -120t92 -78.5t107.5 -47t85.5 -22.5q31 6 86 22.5t107 47t91 78.5t39 120q0 61 -25.5 109.5t-69.5 81t-102.5 50t-125.5 17.5q-68 0 -127.5 -17.5t-102.5 -50t-68.5 -81 t-25.5 -109.5z" />
<glyph unicode="9" horiz-adv-x="1196" d="M117 952q0 84 30.5 163t89 139.5t144.5 97.5t194 37q137 0 233.5 -58.5t156 -157t86 -226.5t26.5 -265q0 -131 -28.5 -258t-91 -226.5t-162 -160t-240.5 -60.5q-133 0 -220 48.5t-147 126.5l68 84q49 -66 117.5 -109t181.5 -43t189.5 53t125 139t68.5 192.5t20 215.5v64 q-23 -35 -62.5 -76t-91.5 -75t-114.5 -56.5t-132.5 -22.5q-92 0 -172 26.5t-140.5 81t-94 136.5t-33.5 190zM236 954q0 -84 25.5 -145t71.5 -102t108.5 -61.5t136.5 -20.5q113 0 213 64.5t159 168.5q-6 70 -28.5 144.5t-66.5 137t-111.5 102.5t-163.5 40q-88 0 -153 -30.5 t-108 -78t-63 -105.5t-20 -114z" />
<glyph unicode=":" horiz-adv-x="448" d="M133 72q0 35 26.5 61.5t63.5 26.5t64.5 -27t27.5 -61q0 -37 -27.5 -64.5t-64.5 -27.5t-63.5 27.5t-26.5 64.5zM133 913q0 37 26.5 64t63.5 27t64.5 -27t27.5 -64q0 -35 -27.5 -61.5t-64.5 -26.5t-63.5 27t-26.5 61z" />
<glyph unicode=";" horiz-adv-x="448" d="M119 -199q49 35 81.5 88.5t37.5 100.5q-4 -2 -9 -2h-12q-37 0 -60.5 24.5t-23.5 61.5q0 35 25.5 61.5t62.5 26.5q41 0 73 -33.5t32 -99.5q0 -86 -44 -161t-104 -118zM133 913q0 37 26.5 64t63.5 27t64.5 -27t27.5 -64q0 -35 -27.5 -61.5t-64.5 -26.5t-63.5 27t-26.5 61z " />
<glyph unicode="&#x3c;" horiz-adv-x="1015" d="M59 647v76l897 465v-101l-790 -403l790 -399v-101z" />
<glyph unicode="=" horiz-adv-x="1015" d="M59 442v84h897v-84h-897zM59 842v86h897v-86h-897z" />
<glyph unicode="&#x3e;" horiz-adv-x="1015" d="M59 184v101l791 399l-791 403v101l897 -465v-76z" />
<glyph unicode="?" horiz-adv-x="950" d="M45 1171q72 98 180.5 156.5t259.5 58.5q92 0 165 -25.5t123 -68.5t77 -100t27 -121q0 -78 -31 -135t-78 -100t-100.5 -79t-100.5 -71t-77.5 -76t-30.5 -94q0 -23 16.5 -52.5t44.5 -51.5l-82 -52q-45 37 -64.5 78t-19.5 84q0 68 30 116t74 87t96 71.5t96 70.5t74 83 t30 109q0 45 -17.5 85t-52.5 70.5t-86 48t-119 17.5q-133 0 -216 -50t-144 -134zM367 72q0 35 26.5 61.5t63.5 26.5t63.5 -27t26.5 -61q0 -37 -26.5 -64.5t-63.5 -27.5t-63.5 27.5t-26.5 64.5z" />
<glyph unicode="@" horiz-adv-x="1603" d="M72 500q0 166 67.5 313.5t179 257t259 173t307.5 63.5q143 0 263 -51.5t204 -140.5t131 -210t47 -258q0 -117 -28.5 -205t-75 -147t-105.5 -90t-123 -31q-86 0 -132 53.5t-48 120.5l-2 12q-53 -76 -142.5 -131t-193.5 -55q-141 0 -227 89t-86 239q0 111 42 205 t111.5 164.5t156.5 110.5t179 40q104 0 171 -50t95 -118l27 133h100l-121 -577q-2 -10 -3 -19.5t-1 -19.5q0 -53 31 -83t72 -30q31 0 71.5 18.5t77.5 63.5t62.5 120t25.5 189q0 127 -43 235.5t-119.5 187.5t-184 124t-238.5 45q-150 0 -285 -61.5t-236.5 -164t-161 -236.5 t-59.5 -277q0 -123 44 -229.5t123 -185.5t187.5 -123t237.5 -44q113 0 206 32t177 85l35 -51q-96 -61 -203.5 -95t-222.5 -34q-139 0 -258 49t-206 136t-136 205t-49 253zM473 508q0 -109 58 -179.5t169 -70.5q57 0 107.5 18.5t93.5 48t77 66.5t58 74l66 303 q-10 27 -28.5 56.5t-47.5 55t-67.5 42t-90.5 16.5q-82 0 -153.5 -37t-125.5 -97.5t-85 -137t-31 -158.5z" />
<glyph unicode="A" horiz-adv-x="1325" d="M31 0l559 1366h145l559 -1366h-135l-135 336h-723l-135 -336h-135zM340 442h645l-323 799z" />
<glyph unicode="B" horiz-adv-x="1257" d="M170 0v1366h561q174 0 275.5 -93t101.5 -255q0 -66 -20.5 -119t-53.5 -93t-77 -66.5t-89 -34.5q55 -8 103.5 -39t84.5 -77t57.5 -102.5t21.5 -117.5q0 -172 -103.5 -270.5t-288.5 -98.5h-573zM287 106h438q135 0 211 73t76 198q0 51 -18.5 100t-54.5 87t-89 60.5 t-125 22.5h-438v-541zM287 754h430q133 0 200.5 72.5t67.5 179.5q0 104 -67.5 179t-200.5 75h-430v-506z" />
<glyph unicode="C" horiz-adv-x="1376" d="M119 682q0 158 53 288t147.5 223t220.5 144.5t271 51.5q164 0 287 -66t211 -176l-99 -64q-66 90 -171 144.5t-228 54.5q-121 0 -224.5 -44t-180 -123t-120.5 -189.5t-44 -243.5t44 -242.5t120.5 -189.5t180 -124t224.5 -44q123 0 228.5 54t170.5 145l99 -62 q-92 -113 -213 -178.5t-285 -65.5q-145 0 -271 51.5t-220.5 144.5t-147.5 223t-53 288z" />
<glyph unicode="D" horiz-adv-x="1417" d="M170 0v1366h436q160 0 287 -54.5t217 -147.5t138 -217t48 -265t-48 -266t-138 -217.5t-217 -145.5t-287 -53h-436zM287 106h319q135 0 240.5 45.5t178.5 123t111 182t38 225.5q0 119 -38 224.5t-110 184t-178.5 124t-241.5 45.5h-319v-1154z" />
<glyph unicode="E" horiz-adv-x="1155" d="M170 0v1366h866v-106h-749v-506h735v-107h-735v-541h749v-106h-866z" />
<glyph unicode="F" horiz-adv-x="1110" d="M170 0v1366h866v-106h-749v-506h735v-107h-735v-647h-117z" />
<glyph unicode="G" horiz-adv-x="1456" d="M119 682q0 158 54 288t148.5 223t220.5 144.5t269 51.5q170 0 295 -62.5t219 -171.5l-88 -63q-72 86 -183.5 138t-242.5 52q-121 0 -224.5 -44t-180 -123t-120.5 -189.5t-44 -243.5t44 -243.5t120.5 -190.5t180 -124t224.5 -44q68 0 129 15.5t111.5 39t91.5 53t69 58.5 v327h-516v105h633v-477q-92 -102 -224 -165t-294 -63q-143 0 -269 51.5t-220.5 144.5t-148.5 224t-54 289z" />
<glyph unicode="H" horiz-adv-x="1439" d="M170 0v1366h117v-610h866v610h119v-1366h-119v649h-866v-649h-117z" />
<glyph unicode="I" horiz-adv-x="456" d="M170 0v1366h117v-1366h-117z" />
<glyph unicode="J" horiz-adv-x="962" d="M29 143l71 88q47 -59 110.5 -104t162.5 -45q141 0 221 87t80 226v971h119v-971q0 -106 -33 -185t-89.5 -131t-131 -78t-160.5 -26q-111 0 -197 40t-153 128z" />
<glyph unicode="K" horiz-adv-x="1200" d="M170 0v1366h117v-748l659 748h150l-582 -651l637 -715h-150l-563 643l-151 -166v-477h-117z" />
<glyph unicode="L" horiz-adv-x="1032" d="M170 0v1366h117v-1260h661v-106h-778z" />
<glyph unicode="M" horiz-adv-x="1617" d="M170 0v1366h174l465 -1126l463 1126h176v-1366h-119v1206l-498 -1206h-45l-499 1206v-1206h-117z" />
<glyph unicode="N" horiz-adv-x="1431" d="M170 0v1366h119l856 -1157v1157h117v-1366h-115l-860 1174v-1174h-117z" />
<glyph unicode="O" horiz-adv-x="1564" d="M119 682q0 150 47 279t134 224t209 149.5t273 54.5q150 0 273 -54.5t210 -149.5t134 -224.5t47 -278.5q0 -150 -47 -279t-134 -224t-210 -149.5t-273 -54.5q-152 0 -273.5 54.5t-208.5 149.5t-134 224t-47 279zM242 682q0 -129 37.5 -238.5t108.5 -190.5t170 -126 t224 -45q123 0 222.5 45t170 126t109.5 190.5t39 238.5q0 131 -39 240.5t-109.5 189.5t-170 125t-222.5 45q-125 0 -224 -45t-170 -125t-108.5 -189.5t-37.5 -240.5z" />
<glyph unicode="P" d="M170 0v1366h512q98 0 175 -31.5t129 -87t80 -128t28 -152.5t-28 -153t-81 -128t-129 -87t-174 -32h-395v-567h-117zM287 674h383q68 0 123 21.5t95 60.5t61.5 92t21.5 119q0 63 -21.5 117.5t-61.5 93.5t-95.5 60.5t-122.5 21.5h-383v-586z" />
<glyph unicode="Q" horiz-adv-x="1564" d="M119 682q0 150 47 279t134 224t209 149.5t273 54.5q150 0 273 -54.5t210 -149.5t134 -224.5t47 -278.5q0 -156 -51.5 -287t-143.5 -227l144 -150l-80 -73l-146 149q-78 -57 -175 -88t-212 -31q-152 0 -273.5 54.5t-208.5 149.5t-134 224t-47 279zM242 682 q0 -129 37.5 -238.5t108.5 -190.5t170 -126t224 -45q90 0 168 24.5t142 69.5l-211 219l82 76l211 -221q72 82 110.5 191.5t38.5 240.5t-39 240.5t-109.5 189.5t-170 125t-222.5 45q-125 0 -224 -45t-170 -125t-108.5 -189.5t-37.5 -240.5z" />
<glyph unicode="R" horiz-adv-x="1216" d="M170 0v1366h510q88 0 164 -27.5t132 -79t88 -125t32 -167.5q0 -92 -31 -165t-83 -122t-120.5 -77t-144.5 -30l395 -573h-141l-383 565h-301v-565h-117zM287 672h383q68 0 123 21.5t95 61.5t62.5 93t22.5 119q0 63 -22.5 117.5t-62.5 93.5t-95.5 60.5t-122.5 21.5h-383 v-588z" />
<glyph unicode="S" horiz-adv-x="1189" d="M94 193l76 88q33 -39 76 -75t97 -63.5t116.5 -44t136.5 -16.5q104 0 174 26.5t112 66.5t58 88t16 91q0 100 -60 155.5t-151.5 90.5t-198 60.5t-197.5 66.5t-151.5 109.5t-60.5 187.5q0 84 35 151.5t96.5 114.5t143.5 73t174 26q154 0 268.5 -50.5t194.5 -142.5l-78 -86 q-74 90 -174.5 131t-216.5 41q-68 0 -126.5 -18.5t-101.5 -52t-67.5 -80t-24.5 -101.5q0 -66 35 -108.5t93 -71.5t131 -50.5t149.5 -44t150.5 -50t132.5 -72.5t93 -109.5t34.5 -161.5q0 -66 -23.5 -134t-80.5 -124.5t-150.5 -92.5t-230.5 -36q-170 0 -296 60.5t-204 157.5z " />
<glyph unicode="T" horiz-adv-x="1155" d="M72 1260v106h1011v-106h-446v-1260h-119v1260h-446z" />
<glyph unicode="U" horiz-adv-x="1404" d="M170 524v842h119v-840q0 -209 105.5 -326.5t307.5 -117.5q205 0 309.5 117.5t104.5 326.5v840h119v-842q0 -254 -134.5 -401.5t-398.5 -147.5q-131 0 -230 39t-166.5 110t-101.5 172t-34 228z" />
<glyph unicode="V" horiz-adv-x="1325" d="M31 1366h135l496 -1235l497 1235h135l-559 -1366h-145z" />
<glyph unicode="W" horiz-adv-x="1775" d="M39 1366h131l330 -1202l336 1202h106l334 -1202l330 1202h131l-389 -1366h-131l-328 1174l-328 -1174h-131z" />
<glyph unicode="X" horiz-adv-x="1320" d="M37 0l551 700l-520 666h149l442 -580l445 580h147l-518 -664l549 -702h-145l-478 616l-475 -616h-147z" />
<glyph unicode="Y" horiz-adv-x="1265" d="M31 1366h141l461 -672l461 672h141l-543 -782v-584h-119v584z" />
<glyph unicode="Z" horiz-adv-x="1189" d="M102 0v102l824 1158h-824v106h971v-100l-823 -1160h837v-106h-985z" />
<glyph unicode="[" horiz-adv-x="466" d="M76 -389v1778h356v-89h-266v-1601h266v-88h-356z" />
<glyph unicode="\" horiz-adv-x="577" d="M0 1407h92l486 -1448h-93z" />
<glyph unicode="]" horiz-adv-x="466" d="M35 -301h266v1601h-266v89h356v-1778h-356v88z" />
<glyph unicode="^" horiz-adv-x="876" d="M39 682l356 684h86l357 -684h-99l-301 600l-301 -600h-98z" />
<glyph unicode="_" horiz-adv-x="1155" d="M-6 -82h1167v-88h-1167v88z" />
<glyph unicode="`" horiz-adv-x="442" d="M0 1434h127l315 -295h-90z" />
<glyph unicode="a" horiz-adv-x="1067" d="M113 305q0 80 29.5 141.5t78.5 103.5t110.5 62.5t127.5 20.5q209 0 336 -141v200q0 111 -78 169.5t-189 58.5q-92 0 -166.5 -34t-142.5 -112l-59 74q78 84 168 125t213 41q76 0 141.5 -18.5t114.5 -57.5t76.5 -99.5t27.5 -142.5v-696h-106v117q-129 -141 -336 -142 q-63 0 -126 21.5t-112 63.5t-78.5 103.5t-29.5 141.5zM225 303q0 -104 74 -174t197 -70q90 0 167.5 34t131.5 102v217q-53 68 -131 102.5t-168 34.5q-123 0 -197 -69.5t-74 -176.5z" />
<glyph unicode="b" d="M166 0v1366h106v-537q59 86 149.5 135.5t194.5 49.5q98 0 180.5 -37t140.5 -105.5t90 -165t32 -212.5q0 -119 -33 -215.5t-91 -164t-139 -103.5t-180 -36q-111 0 -200.5 52.5t-143.5 130.5v-158h-106zM272 248q43 -72 132.5 -124t193.5 -52q82 0 146.5 31.5t109.5 89 t67.5 134t22.5 167.5q0 90 -22.5 167.5t-67.5 134t-109.5 89.5t-146.5 33q-51 0 -100 -15.5t-92.5 -40t-78 -57.5t-55.5 -68v-489z" />
<glyph unicode="c" horiz-adv-x="1011" d="M109 496q0 109 33.5 203t97 164.5t152.5 110.5t198 40q129 0 210 -46t140 -122l-74 -66q-53 74 -120.5 106t-149.5 32q-86 0 -155.5 -33t-118 -89.5t-74 -134t-25.5 -165.5q0 -90 25.5 -167t74 -134.5t118 -90t155.5 -32.5q82 0 149.5 32.5t120.5 106.5l74 -66 q-59 -78 -140 -124t-210 -46q-109 0 -198 41t-152.5 112t-97 165t-33.5 203z" />
<glyph unicode="d" d="M109 494q0 117 31.5 213t90 164.5t140.5 105.5t180 37q106 0 195.5 -49.5t148.5 -135.5v537h109v-1366h-109v158q-53 -78 -143 -130.5t-201 -52.5q-98 0 -180 36t-140.5 103.5t-90 164t-31.5 215.5zM223 494q0 -90 23.5 -167t67.5 -134.5t108.5 -89t146.5 -31.5 q51 0 101.5 14t92.5 39t75.5 56.5t56.5 66.5v489q-23 37 -56.5 70t-75.5 57.5t-92 39t-102 14.5q-82 0 -146.5 -33t-108.5 -89.5t-67.5 -134t-23.5 -167.5z" />
<glyph unicode="e" horiz-adv-x="1161" d="M109 496q0 106 35.5 201.5t99 165t151.5 110.5t191 41q113 0 199.5 -42t146 -114t90.5 -167t31 -202v-28h-828q4 -80 32 -151.5t78 -126t119.5 -85t157.5 -30.5q94 0 177 34.5t147 102.5l55 -70q-74 -78 -169 -119t-218 -41q-109 0 -200 38t-156.5 107.5t-102 165 t-36.5 210.5zM225 545h719q0 63 -21.5 129.5t-66.5 122t-112.5 90.5t-159.5 35q-88 0 -153.5 -35t-111 -89.5t-69 -122t-25.5 -130.5z" />
<glyph unicode="f" horiz-adv-x="542" d="M37 895v94h164v90q0 145 71.5 226t196.5 81q53 0 97 -14t91 -55l-51 -74q-25 23 -55.5 37t-71.5 14q-86 0 -129 -55t-43 -160v-90h201v-94h-201v-895h-106v895h-164z" />
<glyph unicode="g" horiz-adv-x="1167" d="M109 496q0 117 31.5 213t90 163.5t140.5 104.5t180 37q106 0 195.5 -49.5t148.5 -135.5v160h109v-979q0 -115 -36 -192.5t-97.5 -126.5t-142.5 -70.5t-171 -21.5q-61 0 -113.5 6t-99.5 23.5t-90 46t-86 73.5l61 82q66 -78 141.5 -108.5t186.5 -30.5q68 0 129.5 17.5 t107.5 56t73.5 98t27.5 145.5v156q-53 -76 -143 -130t-201 -54q-98 0 -180 35.5t-140.5 103t-90 163t-31.5 214.5zM223 496q0 -90 23.5 -167t67.5 -133.5t108.5 -88t146.5 -31.5q51 0 100.5 14t92.5 39t76.5 57.5t56.5 69.5v481q-23 37 -56.5 70t-76.5 57.5t-92 39 t-101 14.5q-82 0 -146.5 -32t-108.5 -89.5t-67.5 -134t-23.5 -166.5z" />
<glyph unicode="h" horiz-adv-x="1105" d="M166 0v1366h106v-526q27 33 66 63.5t86 55t99 40t106 15.5q152 0 231.5 -75t79.5 -243v-696h-106v674q0 72 -17.5 119t-49.5 74.5t-76 39t-97 11.5q-47 0 -94 -14.5t-90 -37t-78 -54.5t-60 -64v-748h-106z" />
<glyph unicode="i" horiz-adv-x="438" d="M137 1227q0 35 24.5 57.5t57.5 22.5q35 0 58.5 -22.5t23.5 -57.5t-23.5 -58.5t-58.5 -23.5q-33 0 -57.5 23.5t-24.5 58.5zM166 0v989h106v-989h-106z" />
<glyph unicode="j" horiz-adv-x="438" d="M-199 -326l47 84q25 -27 62 -47t84 -20q72 0 122 42t50 140v1116h106v-1116q0 -137 -69.5 -205.5t-198.5 -68.5q-68 0 -113 18t-90 57zM137 1227q0 35 24.5 57.5t57.5 22.5q35 0 58.5 -22.5t23.5 -57.5t-23.5 -58.5t-58.5 -23.5q-33 0 -57.5 23.5t-24.5 58.5z" />
<glyph unicode="k" horiz-adv-x="1034" d="M166 0v1366h106v-942l584 565h141l-460 -446l458 -543h-143l-395 471l-185 -174v-297h-106z" />
<glyph unicode="l" horiz-adv-x="438" d="M166 0v1366h106v-1366h-106z" />
<glyph unicode="m" horiz-adv-x="1615" d="M166 0v989h106v-149q14 25 46 54.5t75 56t94.5 45t104.5 18.5q57 0 101 -15.5t77 -42t52.5 -59.5t29.5 -70q20 35 55 69t78 59.5t92 42t103 16.5q270 0 270 -301v-713h-107v692q0 104 -47 165t-151 61q-41 0 -82 -13.5t-79 -37t-69.5 -54.5t-52.5 -63v-750h-108v692 q0 104 -46 165t-153 61q-39 0 -80 -14.5t-79 -37t-69.5 -54.5t-54.5 -64v-748h-106z" />
<glyph unicode="n" horiz-adv-x="1105" d="M166 0v989h106v-149q27 33 66 63.5t86 55t99 40t106 15.5q152 0 231.5 -77t79.5 -245v-692h-106v670q0 72 -17.5 119t-49.5 75.5t-76 41t-97 12.5q-47 0 -94 -14.5t-90 -37t-78 -54.5t-60 -64v-748h-106z" />
<glyph unicode="o" d="M109 496q0 109 33.5 203t95 164.5t149.5 110.5t197 40q111 0 198.5 -40t149 -110.5t95.5 -165t34 -202.5q0 -109 -34 -203t-95.5 -165t-149 -112t-198.5 -41q-109 0 -197 41t-149.5 112t-95 165t-33.5 203zM223 496q0 -84 23.5 -160t69.5 -135.5t114 -94t154 -34.5 q88 0 155.5 34.5t113.5 94t69.5 135.5t23.5 160q0 82 -23.5 158.5t-69.5 135t-113.5 93.5t-155.5 35q-86 0 -154 -35t-114 -93.5t-69.5 -135t-23.5 -158.5z" />
<glyph unicode="p" horiz-adv-x="1161" d="M166 -377v1366h106v-155q53 76 143.5 128t200.5 52q98 0 180.5 -36t140.5 -103.5t90 -164t32 -214.5q0 -119 -32 -215.5t-90 -164t-140.5 -104.5t-180.5 -37q-104 0 -194 49.5t-150 135.5v-537h-106zM272 252q20 -35 55 -67.5t78.5 -57.5t92.5 -40t100 -15 q82 0 146.5 32.5t109.5 89t67.5 134.5t22.5 168t-22.5 166.5t-67.5 134t-109.5 89.5t-146.5 32q-104 0 -193.5 -52.5t-132.5 -124.5v-489z" />
<glyph unicode="q" horiz-adv-x="1161" d="M102 496q0 119 32 215t90.5 163.5t139 103.5t179.5 36q113 0 203 -52.5t143 -127.5v155h106v-1366h-106v537q-59 -86 -149.5 -135.5t-196.5 -49.5q-98 0 -179 37t-139.5 104.5t-90.5 164t-32 215.5zM217 496q0 -90 22.5 -168t67.5 -134.5t108.5 -89t147.5 -32.5 q51 0 100.5 15t92.5 40t76.5 57.5t56.5 67.5v489q-43 72 -132 124.5t-194 52.5q-84 0 -147.5 -32t-108.5 -89.5t-67.5 -134t-22.5 -166.5z" />
<glyph unicode="r" horiz-adv-x="649" d="M166 0v989h106v-170q63 84 146.5 137.5t187.5 53.5v-117q-14 4 -25.5 4h-27.5q-37 0 -80 -15.5t-82 -40t-70.5 -56t-48.5 -64.5v-721h-106z" />
<glyph unicode="s" horiz-adv-x="940" d="M80 131l63 80q47 -59 131 -102t189 -43q125 0 194.5 57t69.5 143q0 68 -46 105t-115.5 59.5t-150.5 40.5t-150.5 48t-116 81t-46.5 139q0 57 24 107.5t69 87.5t110.5 58.5t149.5 21.5q129 0 215 -43t139 -103l-59 -75q-43 59 -120 95t-175 36q-117 0 -182.5 -51.5 t-65.5 -129.5q0 -61 46 -94t115.5 -54.5t150.5 -39.5t150.5 -51t115.5 -88.5t46 -149.5q0 -59 -23.5 -112.5t-69.5 -93.5t-115.5 -62.5t-161.5 -22.5q-121 0 -214 37t-167 119z" />
<glyph unicode="t" horiz-adv-x="563" d="M23 895v94h163v271h109v-271h201v-94h-201v-688q0 -59 24.5 -97t77.5 -38q35 0 65 14t46 33l41 -82q-29 -29 -68 -45.5t-100 -16.5q-98 0 -146.5 56.5t-48.5 158.5v705h-163z" />
<glyph unicode="u" horiz-adv-x="1105" d="M166 293v696h106v-672q0 -72 17.5 -119.5t49.5 -75.5t76 -39t97 -11q47 0 94 13t89 35.5t78 52.5t61 63v753h106v-989h-106v145q-61 -68 -154.5 -119t-202.5 -51q-154 0 -232.5 75t-78.5 243z" />
<glyph unicode="v" horiz-adv-x="985" d="M14 989h119l361 -864l356 864h121l-418 -989h-121z" />
<glyph unicode="w" horiz-adv-x="1472" d="M35 989h115l262 -839l278 839h92l279 -839l262 839h115l-322 -989h-102l-277 846l-278 -846h-103z" />
<glyph unicode="x" horiz-adv-x="980" d="M35 0l391 508l-369 481h127l308 -407l305 407h127l-369 -481l391 -508h-127l-327 436l-330 -436h-127z" />
<glyph unicode="y" horiz-adv-x="985" d="M14 989h119l361 -864l356 864h121l-512 -1206q-78 -184 -254 -184q-25 0 -54.5 4t-50.5 10l19 98q16 -8 41.5 -12t44.5 -4q49 0 85 24.5t64 96.5l78 176z" />
<glyph unicode="z" horiz-adv-x="960" d="M115 0v88l585 807h-585v94h723v-86l-592 -809h600v-94h-731z" />
<glyph unicode="{" horiz-adv-x="509" d="M12 459v82q53 0 80 44t27 101v449q0 57 19.5 104t52 80t73.5 51.5t84 18.5h127v-89h-127q-55 0 -96 -46t-41 -119v-455q0 -66 -21.5 -112t-72.5 -68q51 -23 72.5 -69t21.5 -112v-454q0 -72 41 -119t96 -47h127v-88h-127q-43 0 -84 17.5t-73.5 50t-52 79.5t-19.5 105v450 q0 57 -26.5 101.5t-80.5 44.5z" />
<glyph unicode="|" horiz-adv-x="425" d="M170 -41v1448h88v-1448h-88z" />
<glyph unicode="}" horiz-adv-x="509" d="M35 -301h127q55 0 96 47t41 119v454q0 66 21.5 112t72.5 69q-51 23 -72.5 68.5t-21.5 111.5v455q0 74 -41 119.5t-96 45.5h-127v89h127q43 0 84 -18.5t73.5 -51.5t52 -80t19.5 -104v-449q0 -57 26.5 -101t80.5 -44v-82q-53 0 -80 -44t-27 -102v-450q0 -57 -19.5 -104.5 t-52 -80t-73.5 -50t-84 -17.5h-127v88z" />
<glyph unicode="~" horiz-adv-x="1021" d="M55 887q8 92 26.5 178t49.5 152.5t79 105.5t120 39q63 0 102 -29.5t65.5 -75t44 -97.5t37 -97t45 -75t68.5 -30q82 0 125 108t62 300l88 -10q-10 -92 -26.5 -179t-47.5 -154t-80 -106.5t-121 -39.5q-63 0 -102 29.5t-64.5 74.5t-43 96t-37 96.5t-46 75t-69.5 29.5 q-82 0 -125 -107.5t-60 -296.5z" />
<glyph unicode="&#xa1;" horiz-adv-x="448" d="M135 920q0 35 25.5 61.5t62.5 26.5t64.5 -27t27.5 -61q0 -37 -27.5 -64t-64.5 -27t-62.5 27t-25.5 64zM156 -377l26 1010h84l29 -1010h-139z" />
<glyph unicode="&#xa2;" horiz-adv-x="1011" d="M109 496q0 100 29.5 188t83.5 156.5t131 112.5t173 57v147h92v-143q117 -6 191 -51t131 -117l-74 -66q-51 68 -112.5 100.5t-135.5 37.5v-846q74 4 135.5 36.5t112.5 102.5l74 -66q-57 -72 -131 -117.5t-191 -52.5v-180h-92v185q-96 12 -173 56t-131 112.5t-83.5 157.5 t-29.5 190zM223 496q0 -80 20.5 -151t59.5 -126t95.5 -92t127.5 -49v833q-72 -12 -128 -49t-95 -92t-59.5 -124.5t-20.5 -149.5z" />
<glyph unicode="&#xa3;" horiz-adv-x="1034" d="M37 547v86h256q-31 35 -64.5 70.5t-61.5 78.5t-46.5 94.5t-18.5 116.5q0 80 34 150.5t92.5 125t139.5 86t177 31.5q127 0 229.5 -58t155.5 -163l-94 -59q-14 33 -41 64.5t-64 57t-82 41t-96 15.5q-66 0 -125 -19.5t-103 -57.5t-71 -92t-27 -124q0 -66 19.5 -115t48.5 -90 t63.5 -77.5t63.5 -75.5h309v-86h-258q10 -25 15.5 -51.5t5.5 -57.5q0 -102 -49.5 -169.5t-116.5 -116.5q23 8 51.5 13t58.5 5q51 0 89 -14.5t74 -30.5t72 -30.5t81 -14.5q72 0 127 27.5t77 56.5l56 -96q-43 -41 -109.5 -69t-154.5 -28q-70 0 -113 15.5t-78 33t-74 33 t-102 15.5q-53 0 -114.5 -24t-127.5 -58l-45 98q145 61 218 150.5t73 187.5q0 35 -9 65.5t-24 59.5h-317z" />
<glyph unicode="&#xa4;" horiz-adv-x="1204" d="M59 1157l70 68l164 -164q59 49 136 76.5t171 27.5t172 -27.5t137 -76.5l162 162l70 -68l-164 -164q98 -129 98 -309t-98 -307l164 -162l-70 -68l-160 158q-59 -51 -138 -78.5t-173 -27.5t-172 28.5t-137 79.5l-160 -160l-70 68l162 162q-47 63 -71.5 141t-24.5 166 q0 180 98 307zM238 682q0 -76 24.5 -145.5t70.5 -123t113.5 -85t153.5 -31.5q88 0 155.5 31.5t113.5 85t70 123t24 145.5q0 74 -24 143.5t-70 122.5t-113.5 85t-155.5 32q-86 0 -153.5 -32t-113.5 -85t-70.5 -122.5t-24.5 -143.5z" />
<glyph unicode="&#xa5;" horiz-adv-x="1265" d="M31 1366h141l461 -672l461 672h141l-483 -696h471v-86h-531v-242h531v-84h-531v-258h-119v258h-528v84h528v242h-528v86h469z" />
<glyph unicode="&#xa6;" horiz-adv-x="425" d="M170 -41v647h88v-647h-88zM170 760v647h88v-647h-88z" />
<glyph unicode="&#xa7;" horiz-adv-x="944" d="M80 -8l63 74q45 -55 123 -101.5t195 -46.5t191.5 54.5t74.5 150.5q0 70 -46 107.5t-115.5 61t-150.5 42t-150.5 48.5t-116 81t-46.5 139q0 55 20.5 99t54.5 76t80 54.5t97 34.5q-113 35 -182.5 90.5t-69.5 159.5q0 53 22.5 102.5t68 86t111 59t151.5 22.5q133 0 219 -45 t133 -102l-57 -68q-53 68 -132 100t-161 32q-111 0 -180.5 -51.5t-69.5 -137.5q0 -63 46 -97t115.5 -54.5t150.5 -38t150.5 -49t115.5 -87t46 -151.5q0 -180 -196 -262q92 -35 144 -91.5t52 -156.5q0 -70 -26.5 -124t-75.5 -92t-117.5 -57.5t-150.5 -19.5q-74 0 -132.5 13.5 t-103.5 35t-79.5 50t-65.5 59.5zM207 608q0 -49 27.5 -80.5t73.5 -54t104.5 -38t122.5 -29.5q90 39 140 91t50 132q0 49 -22.5 82.5t-59.5 57.5t-83 38t-91 27q-152 -41 -207 -96.5t-55 -129.5z" />
<glyph unicode="&#xa8;" horiz-adv-x="536" d="M-16 1231q0 31 22.5 53.5t52.5 22.5q31 0 53.5 -22.5t22.5 -53.5t-22.5 -53.5t-53.5 -22.5t-53 22.5t-22 53.5zM401 1231q0 31 22.5 53.5t53.5 22.5t53.5 -22.5t22.5 -53.5t-22.5 -53.5t-53.5 -22.5t-53.5 22.5t-22.5 53.5z" />
<glyph unicode="&#xa9;" horiz-adv-x="1593" d="M90 684q0 147 55.5 275t151.5 224.5t225 152t275 55.5q147 0 275 -55.5t224.5 -152t151.5 -224.5t55 -275q0 -145 -55 -274t-151.5 -225.5t-224.5 -152t-275 -55.5q-145 0 -274.5 55.5t-225.5 152t-151.5 225.5t-55.5 274zM147 684q0 -133 51.5 -252t139.5 -207t207 -139 t252 -51q135 0 252.5 51t205.5 139t139.5 207t51.5 252q0 135 -51.5 253t-139.5 206t-205.5 139t-252.5 51q-133 0 -252 -51t-207 -139t-139.5 -206t-51.5 -253zM373 688q0 94 33.5 174t91 138.5t135.5 91t166 32.5q96 0 169.5 -34.5t127.5 -98.5l-47 -45q-41 53 -110 85 t-140 32q-72 0 -136.5 -26.5t-113.5 -76t-79 -119t-30 -155.5q0 -84 30 -152.5t79 -120t113.5 -79t136.5 -27.5q74 0 142.5 33t109.5 86l45 -45q-55 -66 -128 -100.5t-169 -34.5q-88 0 -166 33.5t-135.5 93t-91 140.5t-33.5 175z" />
<glyph unicode="&#xaa;" horiz-adv-x="768" d="M94 866q0 51 19.5 91t52.5 67t74 40t84 13q139 0 225 -90v125q0 72 -53.5 107.5t-120.5 35.5q-53 0 -108.5 -22.5t-96.5 -75.5l-45 57q53 57 115.5 85t144.5 28q51 0 97 -12t80 -38t53.5 -67t19.5 -98v-444h-86v75q-86 -92 -225 -92q-43 0 -84 14.5t-74 42t-52.5 67.5 t-19.5 91zM182 866q0 -68 48 -110.5t126 -42.5q57 0 108.5 22.5t84.5 63.5v133q-33 41 -84 62.5t-109 21.5q-78 0 -126 -42t-48 -108z" />
<glyph unicode="&#xab;" horiz-adv-x="823" d="M61 498l328 362h117l-328 -362l328 -369h-117zM317 498l328 362h117l-328 -362l328 -369h-117z" />
<glyph unicode="&#xac;" horiz-adv-x="1021" d="M59 842v86h897v-486h-88v400h-809z" />
<glyph unicode="&#xad;" horiz-adv-x="614" d="M61 446v99h492v-99h-492z" />
<glyph unicode="&#xae;" horiz-adv-x="1011" d="M72 952q0 90 33.5 170t93 138.5t138.5 92t169 33.5t170 -33.5t138 -92t92 -138.5t34 -170t-34 -168.5t-92 -138t-138 -93.5t-170 -34t-169 34t-138.5 93.5t-93 138t-33.5 168.5zM127 952q0 -78 29.5 -146.5t81 -120.5t121 -82t147.5 -30t147.5 30t120.5 82t81 120.5 t30 146.5q0 80 -30 148.5t-81 120t-120.5 81t-147.5 29.5t-147.5 -29.5t-121 -81t-81 -120t-29.5 -148.5zM342 702v498h203q63 0 108 -41t45 -110q0 -41 -15 -70t-36.5 -46.5t-43 -24.5t-32.5 -7l134 -199h-78l-129 197h-95v-197h-61zM403 958h142q33 0 61.5 26t28.5 65 q0 41 -28.5 67.5t-61.5 26.5h-142v-185z" />
<glyph unicode="&#xaf;" horiz-adv-x="743" d="M0 1182v75h743v-75h-743z" />
<glyph unicode="&#xb0;" horiz-adv-x="577" d="M51 1147q0 49 18.5 93t50.5 76t75 51t92 19t93 -19t76.5 -51t51 -76t18.5 -93t-18.5 -92t-51 -75t-76.5 -50.5t-93 -18.5t-92 18.5t-75 50.5t-50.5 75t-18.5 92zM131 1147q0 -66 45 -111t111 -45t112.5 45t46.5 111q0 33 -13 62.5t-34.5 51t-50.5 34t-61 12.5 q-66 0 -111 -47.5t-45 -112.5z" />
<glyph unicode="&#xb1;" horiz-adv-x="1015" d="M59 0v84h897v-84h-897zM59 662v83h404v435h92v-435h401v-83h-401v-447h-92v447h-404z" />
<glyph unicode="&#xb2;" horiz-adv-x="786" d="M106 862v72q111 80 200 149.5t151.5 133t96.5 122t34 115.5q0 43 -16.5 73.5t-43 50t-61.5 29t-70 9.5q-78 0 -138 -31t-93 -76l-55 58q47 61 124.5 93.5t163.5 32.5q49 0 99.5 -13t90.5 -41.5t64.5 -73t24.5 -107.5q0 -68 -34 -132.5t-93 -128t-138 -128t-171 -129.5 h440v-78h-576z" />
<glyph unicode="&#xb3;" horiz-adv-x="786" d="M94 981l53 57q39 -51 100.5 -82t139.5 -31q96 0 150.5 42t54.5 118q0 88 -66.5 124t-158.5 36h-47.5t-30.5 -2v80q10 -2 29.5 -2h48.5q88 0 150.5 33.5t62.5 113.5q0 72 -58.5 110t-138.5 38q-72 0 -126 -24.5t-101 -78.5l-52 56q45 53 116 88.5t169 35.5q59 0 110.5 -14 t89.5 -41.5t59.5 -68.5t21.5 -93q0 -47 -17.5 -80.5t-45 -57t-59.5 -36t-61 -16.5q29 -2 63 -15.5t63.5 -38t50 -61.5t20.5 -88q0 -104 -78 -169.5t-217 -65.5q-106 0 -182 38.5t-113 94.5z" />
<glyph unicode="&#xb4;" horiz-adv-x="442" d="M0 1139l315 295h127l-352 -295h-90z" />
<glyph unicode="&#xb5;" horiz-adv-x="1134" d="M166 -377v1366h106v-672q0 -135 65.5 -192t176.5 -57q47 0 93 14t88 36.5t78 53.5t61 64v753h106v-786q0 -59 24.5 -95t75.5 -36q25 0 41 4l9 -94q-25 -6 -64 -7q-92 0 -136 49.5t-54 127.5q-57 -72 -144.5 -124.5t-185.5 -52.5q-100 0 -154.5 34t-79.5 81v-467h-106z " />
<glyph unicode="&#xb6;" horiz-adv-x="919" d="M55 1014q0 74 28 137t76 111.5t111.5 76t137.5 27.5h346v-1571h-78v1495h-191v-1495h-77v867q-74 0 -137.5 27.5t-111.5 75.5t-76 111.5t-28 137.5z" />
<glyph unicode="&#xb7;" horiz-adv-x="448" d="M133 502q0 35 26.5 61.5t63.5 26.5t64.5 -26.5t27.5 -61.5q0 -37 -27.5 -63.5t-64.5 -26.5t-63.5 26.5t-26.5 63.5z" />
<glyph unicode="&#xb8;" horiz-adv-x="405" d="M0 -328l33 66q39 -31 81 -44t83 -13q53 0 93 23.5t40 68.5q0 37 -20.5 58.5t-63.5 21.5q-51 0 -82 -35l-58 32l64 173h78l-53 -140q31 25 75 25q59 0 97.5 -37t38.5 -98q0 -72 -60.5 -116t-146.5 -44q-61 0 -115.5 17.5t-83.5 41.5z" />
<glyph unicode="&#xb9;" horiz-adv-x="438" d="M35 1478l198 203h82v-819h-94v698l-131 -141z" />
<glyph unicode="&#xba;" horiz-adv-x="829" d="M90 989q0 70 23.5 132.5t65.5 107.5t101.5 71.5t133.5 26.5t134 -26.5t103 -71.5t65.5 -107.5t22.5 -132.5t-22.5 -131t-65.5 -107t-103 -73t-134 -27t-133.5 27t-101.5 73t-65.5 107.5t-23.5 130.5zM182 989q0 -53 15.5 -101t45 -84t73 -56.5t98.5 -20.5t99 20.5 t74.5 56.5t46 84t15.5 101t-15.5 100.5t-46 83t-74.5 56t-99 20.5t-98.5 -20.5t-73 -56t-45 -83t-15.5 -100.5z" />
<glyph unicode="&#xbb;" horiz-adv-x="823" d="M61 129l328 369l-328 362h117l328 -362l-328 -369h-117zM317 129l328 369l-328 362h117l328 -362l-328 -369h-117z" />
<glyph unicode="&#xbc;" horiz-adv-x="1519" d="M35 1163l198 203h82v-819h-94v698l-131 -141zM197 0l872 1366h94l-874 -1366h-92zM821 219v72l367 528h125v-524h122v-76h-122v-219h-91v219h-401zM915 295h307v440z" />
<glyph unicode="&#xbd;" horiz-adv-x="1599" d="M35 1163l198 203h82v-819h-94v698l-131 -141zM197 0l872 1366h94l-874 -1366h-92zM919 0v72q111 80 200 149.5t151.5 133t96.5 122t34 115.5q0 43 -16.5 73.5t-43 50t-61.5 29t-70 9.5q-78 0 -138 -31t-93 -76l-55 58q47 61 124.5 93.5t163.5 32.5q49 0 99.5 -13 t90.5 -41.5t64.5 -73t24.5 -107.5q0 -68 -34 -132.5t-93 -128t-138 -128t-171 -129.5h440v-78h-576z" />
<glyph unicode="&#xbe;" horiz-adv-x="1759" d="M94 666l53 57q39 -51 100.5 -82t139.5 -31q96 0 150.5 42t54.5 118q0 88 -66.5 124t-158.5 36h-47.5t-30.5 -2v80q10 -2 29.5 -2h48.5q88 0 150.5 33.5t62.5 113.5q0 72 -58.5 110t-138.5 38q-72 0 -126 -24.5t-101 -78.5l-52 56q45 53 116 88.5t169 35.5q59 0 110.5 -14 t89.5 -41.5t59.5 -68.5t21.5 -93q0 -47 -17.5 -80.5t-45 -57t-59.5 -36t-61 -16.5q29 -2 63 -15.5t63.5 -38t50 -61.5t20.5 -88q0 -104 -78 -169.5t-217 -65.5q-106 0 -182 38.5t-113 94.5zM436 0l872 1366h94l-874 -1366h-92zM1061 219v72l367 528h125v-524h122v-76h-122 v-219h-91v219h-401zM1155 295h307v440z" />
<glyph unicode="&#xbf;" horiz-adv-x="804" d="M74 -88q0 78 30.5 135t77.5 101.5t100.5 79t100.5 70.5t78 77t31 94q0 23 -15.5 51.5t-46.5 50.5l82 52q47 -37 66.5 -78t19.5 -84q0 -68 -29.5 -116t-74.5 -87t-96.5 -71.5t-96.5 -70.5t-74.5 -83t-29.5 -109q0 -45 17 -85t53 -70.5t87.5 -48t118.5 -17.5q131 0 214 50 t144 134l74 -75q-72 -98 -180.5 -156.5t-259.5 -58.5q-92 0 -165 25.5t-123 68.5t-76.5 100t-26.5 121zM403 918q0 37 27 63.5t64 26.5t64.5 -27t27.5 -63q0 -35 -28 -62t-64 -27q-37 0 -64 27t-27 62z" />
<glyph unicode="&#xc0;" horiz-adv-x="1325" d="M31 0l559 1366h145l559 -1366h-135l-135 336h-723l-135 -336h-135zM332 1776h127l315 -295h-90zM340 442h645l-323 799z" />
<glyph unicode="&#xc1;" horiz-adv-x="1325" d="M31 0l559 1366h145l559 -1366h-135l-135 336h-723l-135 -336h-135zM340 442h645l-323 799zM553 1481l315 295h127l-352 -295h-90z" />
<glyph unicode="&#xc2;" horiz-adv-x="1325" d="M31 0l559 1366h145l559 -1366h-135l-135 336h-723l-135 -336h-135zM340 442h645l-323 799zM410 1481l199 295h110l203 -295h-82l-176 231l-174 -231h-80z" />
<glyph unicode="&#xc3;" horiz-adv-x="1325" d="M31 0l559 1366h145l559 -1366h-135l-135 336h-723l-135 -336h-135zM340 442h645l-323 799zM348 1489q0 57 12.5 107.5t37 87t59 58t81.5 21.5q57 0 89 -32.5t55.5 -71.5t47.5 -72t64 -33q47 0 78 46.5t31 150.5h74q0 -57 -12.5 -107.5t-36 -87t-59.5 -58t-81 -21.5 q-57 0 -90 32.5t-56.5 72.5t-47 73t-64.5 33q-47 0 -78.5 -47.5t-31.5 -151.5h-72z" />
<glyph unicode="&#xc4;" horiz-adv-x="1325" d="M31 0l559 1366h145l559 -1366h-135l-135 336h-723l-135 -336h-135zM340 442h645l-323 799zM379 1573q0 31 22.5 53.5t52.5 22.5q31 0 53.5 -22.5t22.5 -53.5t-22.5 -53.5t-53.5 -22.5t-53 22.5t-22 53.5zM796 1573q0 31 22.5 53.5t53.5 22.5t53.5 -22.5t22.5 -53.5 t-22.5 -53.5t-53.5 -22.5t-53.5 22.5t-22.5 53.5z" />
<glyph unicode="&#xc5;" horiz-adv-x="1325" d="M31 0l559 1366h145l559 -1366h-135l-135 336h-723l-135 -336h-135zM340 442h645l-323 799zM469 1612q0 39 15.5 75t42 63.5t62.5 43t77 15.5q39 0 74.5 -15.5t61 -43t41 -63.5t15.5 -75q0 -41 -15.5 -77t-41 -62.5t-61 -42t-74.5 -15.5q-82 0 -139.5 57.5t-57.5 139.5z M535 1612q0 -53 39 -92t92 -39t91 39t38 92t-38 92t-91 39t-92 -39t-39 -92z" />
<glyph unicode="&#xc6;" horiz-adv-x="1923" d="M29 0l862 1366h909v-106h-747v-506h733v-107h-733v-541h747v-106h-866v336h-561l-209 -336h-135zM432 442h502v799z" />
<glyph unicode="&#xc7;" horiz-adv-x="1376" d="M119 682q0 158 53 288t147.5 223t220.5 144.5t271 51.5q164 0 287 -66t211 -176l-99 -64q-66 90 -171 144.5t-228 54.5q-121 0 -224.5 -44t-180 -123t-120.5 -189.5t-44 -243.5t44 -242.5t120.5 -189.5t180 -124t224.5 -44q123 0 228.5 54t170.5 145l99 -62 q-90 -111 -208 -175t-276 -69l-30 -84q31 25 75 25q59 0 97.5 -37t38.5 -98q0 -72 -60.5 -116t-146.5 -44q-61 0 -115.5 17.5t-83.5 42.5l33 65q39 -31 81 -44t83 -13q53 0 93 23.5t40 68.5q0 37 -20.5 58.5t-63.5 21.5q-51 0 -82 -35l-57 33l43 118q-135 10 -250 65.5 t-200 148t-133 217t-48 274.5z" />
<glyph unicode="&#xc8;" horiz-adv-x="1155" d="M170 0v1366h866v-106h-749v-506h735v-107h-735v-541h749v-106h-866zM272 1776h127l315 -295h-90z" />
<glyph unicode="&#xc9;" horiz-adv-x="1155" d="M170 0v1366h866v-106h-749v-506h735v-107h-735v-541h749v-106h-866zM492 1481l315 295h127l-352 -295h-90z" />
<glyph unicode="&#xca;" horiz-adv-x="1155" d="M170 0v1366h866v-106h-749v-506h735v-107h-735v-541h749v-106h-866zM344 1481l199 295h110l203 -295h-82l-176 231l-174 -231h-80z" />
<glyph unicode="&#xcb;" horiz-adv-x="1155" d="M170 0v1366h866v-106h-749v-506h735v-107h-735v-541h749v-106h-866zM316 1573q0 31 22.5 53.5t52.5 22.5q31 0 53.5 -22.5t22.5 -53.5t-22.5 -53.5t-53.5 -22.5t-53 22.5t-22 53.5zM733 1573q0 31 22.5 53.5t53.5 22.5t53.5 -22.5t22.5 -53.5t-22.5 -53.5t-53.5 -22.5 t-53.5 22.5t-22.5 53.5z" />
<glyph unicode="&#xcc;" horiz-adv-x="456" d="M-100 1776h127l315 -295h-90zM170 0v1366h117v-1366h-117z" />
<glyph unicode="&#xcd;" horiz-adv-x="456" d="M119 1481l315 295h127l-352 -295h-90zM170 0v1366h117v-1366h-117z" />
<glyph unicode="&#xce;" horiz-adv-x="456" d="M-23 1481l199 295h110l203 -295h-82l-176 231l-174 -231h-80zM170 0v1366h117v-1366h-117z" />
<glyph unicode="&#xcf;" horiz-adv-x="456" d="M-53 1573q0 31 22.5 53.5t52.5 22.5q31 0 53.5 -22.5t22.5 -53.5t-22.5 -53.5t-53.5 -22.5t-53 22.5t-22 53.5zM170 0v1366h117v-1366h-117zM364 1573q0 31 22.5 53.5t53.5 22.5t53.5 -22.5t22.5 -53.5t-22.5 -53.5t-53.5 -22.5t-53.5 22.5t-22.5 53.5z" />
<glyph unicode="&#xd0;" horiz-adv-x="1476" d="M23 633v90h208v643h437q160 0 286.5 -54.5t217 -147.5t138.5 -217t48 -265t-48 -266t-138.5 -217.5t-217.5 -145.5t-286 -53h-437v633h-208zM348 106h320q135 0 240.5 45.5t178 123t110.5 182t38 225.5q0 119 -38 224.5t-109.5 184t-178 124t-241.5 45.5h-320v-537h367 v-90h-367v-527z" />
<glyph unicode="&#xd1;" horiz-adv-x="1431" d="M170 0v1366h119l856 -1157v1157h117v-1366h-115l-860 1174v-1174h-117zM399 1489q0 57 12.5 107.5t37 87t59 58t81.5 21.5q57 0 89 -32.5t55.5 -71.5t47.5 -72t64 -33q47 0 78 46.5t31 150.5h74q0 -57 -12.5 -107.5t-36 -87t-59.5 -58t-81 -21.5q-57 0 -90 32.5 t-56.5 72.5t-47 73t-64.5 33q-47 0 -78.5 -47.5t-31.5 -151.5h-72z" />
<glyph unicode="&#xd2;" horiz-adv-x="1564" d="M119 682q0 150 47 279t134 224t209 149.5t273 54.5q150 0 273 -54.5t210 -149.5t134 -224.5t47 -278.5q0 -150 -47 -279t-134 -224t-210 -149.5t-273 -54.5q-152 0 -273.5 54.5t-208.5 149.5t-134 224t-47 279zM242 682q0 -129 37.5 -238.5t108.5 -190.5t170 -126 t224 -45q123 0 222.5 45t170 126t109.5 190.5t39 238.5q0 131 -39 240.5t-109.5 189.5t-170 125t-222.5 45q-125 0 -224 -45t-170 -125t-108.5 -189.5t-37.5 -240.5zM453 1776h127l315 -295h-90z" />
<glyph unicode="&#xd3;" horiz-adv-x="1564" d="M119 682q0 150 47 279t134 224t209 149.5t273 54.5q150 0 273 -54.5t210 -149.5t134 -224.5t47 -278.5q0 -150 -47 -279t-134 -224t-210 -149.5t-273 -54.5q-152 0 -273.5 54.5t-208.5 149.5t-134 224t-47 279zM242 682q0 -129 37.5 -238.5t108.5 -190.5t170 -126 t224 -45q123 0 222.5 45t170 126t109.5 190.5t39 238.5q0 131 -39 240.5t-109.5 189.5t-170 125t-222.5 45q-125 0 -224 -45t-170 -125t-108.5 -189.5t-37.5 -240.5zM672 1481l315 295h127l-352 -295h-90z" />
<glyph unicode="&#xd4;" horiz-adv-x="1564" d="M119 682q0 150 47 279t134 224t209 149.5t273 54.5q150 0 273 -54.5t210 -149.5t134 -224.5t47 -278.5q0 -150 -47 -279t-134 -224t-210 -149.5t-273 -54.5q-152 0 -273.5 54.5t-208.5 149.5t-134 224t-47 279zM242 682q0 -129 37.5 -238.5t108.5 -190.5t170 -126 t224 -45q123 0 222.5 45t170 126t109.5 190.5t39 238.5q0 131 -39 240.5t-109.5 189.5t-170 125t-222.5 45q-125 0 -224 -45t-170 -125t-108.5 -189.5t-37.5 -240.5zM530 1481l199 295h110l203 -295h-82l-176 231l-174 -231h-80z" />
<glyph unicode="&#xd5;" horiz-adv-x="1564" d="M119 682q0 150 47 279t134 224t209 149.5t273 54.5q150 0 273 -54.5t210 -149.5t134 -224.5t47 -278.5q0 -150 -47 -279t-134 -224t-210 -149.5t-273 -54.5q-152 0 -273.5 54.5t-208.5 149.5t-134 224t-47 279zM242 682q0 -129 37.5 -238.5t108.5 -190.5t170 -126 t224 -45q123 0 222.5 45t170 126t109.5 190.5t39 238.5q0 131 -39 240.5t-109.5 189.5t-170 125t-222.5 45q-125 0 -224 -45t-170 -125t-108.5 -189.5t-37.5 -240.5zM469 1489q0 57 12.5 107.5t37 87t59 58t81.5 21.5q57 0 89 -32.5t55.5 -71.5t47.5 -72t64 -33 q47 0 78 46.5t31 150.5h74q0 -57 -12.5 -107.5t-36 -87t-59.5 -58t-81 -21.5q-57 0 -90 32.5t-56.5 72.5t-47 73t-64.5 33q-47 0 -78.5 -47.5t-31.5 -151.5h-72z" />
<glyph unicode="&#xd6;" horiz-adv-x="1564" d="M119 682q0 150 47 279t134 224t209 149.5t273 54.5q150 0 273 -54.5t210 -149.5t134 -224.5t47 -278.5q0 -150 -47 -279t-134 -224t-210 -149.5t-273 -54.5q-152 0 -273.5 54.5t-208.5 149.5t-134 224t-47 279zM242 682q0 -129 37.5 -238.5t108.5 -190.5t170 -126 t224 -45q123 0 222.5 45t170 126t109.5 190.5t39 238.5q0 131 -39 240.5t-109.5 189.5t-170 125t-222.5 45q-125 0 -224 -45t-170 -125t-108.5 -189.5t-37.5 -240.5zM496 1573q0 31 22.5 53.5t52.5 22.5q31 0 53.5 -22.5t22.5 -53.5t-22.5 -53.5t-53.5 -22.5t-53 22.5 t-22 53.5zM913 1573q0 31 22.5 53.5t53.5 22.5t53.5 -22.5t22.5 -53.5t-22.5 -53.5t-53.5 -22.5t-53.5 22.5t-22.5 53.5z" />
<glyph unicode="&#xd7;" horiz-adv-x="1015" d="M137 373l312 311l-312 311l62 60l309 -312l311 312l60 -60l-312 -311l312 -311l-60 -60l-311 312l-309 -312z" />
<glyph unicode="&#xd8;" horiz-adv-x="1564" d="M119 682q0 150 47 279t134 224t209 149.5t273 54.5q96 0 180.5 -24t155.5 -65l41 66h107l-74 -115q121 -96 187.5 -242.5t66.5 -326.5q0 -150 -47 -279t-134 -224t-210 -149.5t-273 -54.5q-98 0 -184 24t-160 67l-41 -66h-104l74 115q-119 96 -183.5 242.5t-64.5 324.5z M242 682q0 -147 48 -268t138 -203l631 997q-121 74 -277 74q-125 0 -224 -45t-170 -125t-108.5 -189.5t-37.5 -240.5zM498 158q122 -76 284 -76q123 0 222.5 45t170 126t109.5 190.5t39 238.5q0 150 -49 271.5t-141 201.5z" />
<glyph unicode="&#xd9;" horiz-adv-x="1404" d="M170 524v842h119v-840q0 -209 105.5 -326.5t307.5 -117.5q205 0 309.5 117.5t104.5 326.5v840h119v-842q0 -254 -134.5 -401.5t-398.5 -147.5q-131 0 -230 39t-166.5 110t-101.5 172t-34 228zM373 1776h127l315 -295h-90z" />
<glyph unicode="&#xda;" horiz-adv-x="1404" d="M170 524v842h119v-840q0 -209 105.5 -326.5t307.5 -117.5q205 0 309.5 117.5t104.5 326.5v840h119v-842q0 -254 -134.5 -401.5t-398.5 -147.5q-131 0 -230 39t-166.5 110t-101.5 172t-34 228zM592 1481l315 295h127l-352 -295h-90z" />
<glyph unicode="&#xdb;" horiz-adv-x="1404" d="M170 524v842h119v-840q0 -209 105.5 -326.5t307.5 -117.5q205 0 309.5 117.5t104.5 326.5v840h119v-842q0 -254 -134.5 -401.5t-398.5 -147.5q-131 0 -230 39t-166.5 110t-101.5 172t-34 228zM453 1481l199 295h110l203 -295h-82l-176 231l-174 -231h-80z" />
<glyph unicode="&#xdc;" horiz-adv-x="1404" d="M170 524v842h119v-840q0 -209 105.5 -326.5t307.5 -117.5q205 0 309.5 117.5t104.5 326.5v840h119v-842q0 -254 -134.5 -401.5t-398.5 -147.5q-131 0 -230 39t-166.5 110t-101.5 172t-34 228zM420 1573q0 31 22.5 53.5t52.5 22.5q31 0 53.5 -22.5t22.5 -53.5t-22.5 -53.5 t-53.5 -22.5t-53 22.5t-22 53.5zM837 1573q0 31 22.5 53.5t53.5 22.5t53.5 -22.5t22.5 -53.5t-22.5 -53.5t-53.5 -22.5t-53.5 22.5t-22.5 53.5z" />
<glyph unicode="&#xdd;" horiz-adv-x="1265" d="M31 1366h141l461 -672l461 672h141l-543 -782v-584h-119v584zM522 1481l315 295h127l-352 -295h-90z" />
<glyph unicode="&#xde;" d="M170 0v1366h117v-254h395q98 0 175 -32.5t129 -88t80 -128t28 -152.5t-28 -153t-81 -127t-129 -86t-174 -32h-395v-313h-117zM287 420h383q68 0 123 21.5t95 60.5t61.5 92t21.5 117q0 63 -21.5 117.5t-61.5 93.5t-95.5 61.5t-122.5 22.5h-383v-586z" />
<glyph unicode="&#xdf;" horiz-adv-x="1183" d="M166 0v1042q0 72 25.5 135.5t71.5 109.5t111.5 72.5t147.5 26.5q66 0 125.5 -16t105.5 -48t72.5 -77t26.5 -100t-23.5 -94t-60.5 -69t-78 -53.5t-78 -50t-60.5 -59.5t-23.5 -80q0 -61 45 -94t114 -53.5t147.5 -37.5t147.5 -49t114 -87.5t45 -149.5q0 -55 -21.5 -108.5 t-66.5 -94t-115 -65.5t-166 -25q-74 0 -130 13.5t-99 35t-77 50t-65 59.5l64 78q45 -59 122 -102t185 -43q68 0 117 17t82 45t49 63.5t16 74.5q0 68 -45 105t-113.5 60.5t-147.5 42t-147.5 49t-113.5 80.5t-45 138q0 55 23.5 96.5t59.5 73t77 56t76.5 50t59 53.5t23.5 67 q0 37 -20.5 65.5t-52 48t-70.5 29.5t-78 10q-51 0 -96 -17.5t-79 -49t-54.5 -77.5t-20.5 -104v-1042h-106z" />
<glyph unicode="&#xe0;" horiz-adv-x="1067" d="M113 305q0 80 29.5 141.5t78.5 103.5t110.5 62.5t127.5 20.5q209 0 336 -141v200q0 111 -78 169.5t-189 58.5q-92 0 -166.5 -34t-142.5 -112l-59 74q78 84 168 125t213 41q76 0 141.5 -18.5t114.5 -57.5t76.5 -99.5t27.5 -142.5v-696h-106v117q-129 -141 -336 -142 q-63 0 -126 21.5t-112 63.5t-78.5 103.5t-29.5 141.5zM209 1434h127l315 -295h-90zM225 303q0 -104 74 -174t197 -70q90 0 167.5 34t131.5 102v217q-53 68 -131 102.5t-168 34.5q-123 0 -197 -69.5t-74 -176.5z" />
<glyph unicode="&#xe1;" horiz-adv-x="1067" d="M113 305q0 80 29.5 141.5t78.5 103.5t110.5 62.5t127.5 20.5q209 0 336 -141v200q0 111 -78 169.5t-189 58.5q-92 0 -166.5 -34t-142.5 -112l-59 74q78 84 168 125t213 41q76 0 141.5 -18.5t114.5 -57.5t76.5 -99.5t27.5 -142.5v-696h-106v117q-129 -141 -336 -142 q-63 0 -126 21.5t-112 63.5t-78.5 103.5t-29.5 141.5zM225 303q0 -104 74 -174t197 -70q90 0 167.5 34t131.5 102v217q-53 68 -131 102.5t-168 34.5q-123 0 -197 -69.5t-74 -176.5zM430 1139l315 295h127l-352 -295h-90z" />
<glyph unicode="&#xe2;" horiz-adv-x="1067" d="M113 305q0 80 29.5 141.5t78.5 103.5t110.5 62.5t127.5 20.5q209 0 336 -141v200q0 111 -78 169.5t-189 58.5q-92 0 -166.5 -34t-142.5 -112l-59 74q78 84 168 125t213 41q76 0 141.5 -18.5t114.5 -57.5t76.5 -99.5t27.5 -142.5v-696h-106v117q-129 -141 -336 -142 q-63 0 -126 21.5t-112 63.5t-78.5 103.5t-29.5 141.5zM225 303q0 -104 74 -174t197 -70q90 0 167.5 34t131.5 102v217q-53 68 -131 102.5t-168 34.5q-123 0 -197 -69.5t-74 -176.5zM287 1139l199 295h110l203 -295h-82l-176 231l-174 -231h-80z" />
<glyph unicode="&#xe3;" horiz-adv-x="1067" d="M113 305q0 80 29.5 141.5t78.5 103.5t110.5 62.5t127.5 20.5q209 0 336 -141v200q0 111 -78 169.5t-189 58.5q-92 0 -166.5 -34t-142.5 -112l-59 74q78 84 168 125t213 41q76 0 141.5 -18.5t114.5 -57.5t76.5 -99.5t27.5 -142.5v-696h-106v117q-129 -141 -336 -142 q-63 0 -126 21.5t-112 63.5t-78.5 103.5t-29.5 141.5zM225 303q0 -104 74 -174t197 -70q90 0 167.5 34t131.5 102v217q-53 68 -131 102.5t-168 34.5q-123 0 -197 -69.5t-74 -176.5zM225 1147q0 57 12.5 107.5t37 87t59 58t81.5 21.5q57 0 89 -32.5t55.5 -71.5t47.5 -72 t64 -33q47 0 78 46.5t31 150.5h74q0 -57 -12.5 -107.5t-36 -87t-59.5 -58t-81 -21.5q-57 0 -90 32.5t-56.5 72.5t-47 73t-64.5 33q-47 0 -78.5 -47.5t-31.5 -151.5h-72z" />
<glyph unicode="&#xe4;" horiz-adv-x="1067" d="M113 305q0 80 29.5 141.5t78.5 103.5t110.5 62.5t127.5 20.5q209 0 336 -141v200q0 111 -78 169.5t-189 58.5q-92 0 -166.5 -34t-142.5 -112l-59 74q78 84 168 125t213 41q76 0 141.5 -18.5t114.5 -57.5t76.5 -99.5t27.5 -142.5v-696h-106v117q-129 -141 -336 -142 q-63 0 -126 21.5t-112 63.5t-78.5 103.5t-29.5 141.5zM225 303q0 -104 74 -174t197 -70q90 0 167.5 34t131.5 102v217q-53 68 -131 102.5t-168 34.5q-123 0 -197 -69.5t-74 -176.5zM252 1231q0 31 22.5 53.5t52.5 22.5q31 0 53.5 -22.5t22.5 -53.5t-22.5 -53.5t-53.5 -22.5 t-53 22.5t-22 53.5zM669 1231q0 31 22.5 53.5t53.5 22.5t53.5 -22.5t22.5 -53.5t-22.5 -53.5t-53.5 -22.5t-53.5 22.5t-22.5 53.5z" />
<glyph unicode="&#xe5;" horiz-adv-x="1067" d="M113 305q0 80 29.5 141.5t78.5 103.5t110.5 62.5t127.5 20.5q209 0 336 -141v200q0 111 -78 169.5t-189 58.5q-92 0 -166.5 -34t-142.5 -112l-59 74q78 84 168 125t213 41q76 0 141.5 -18.5t114.5 -57.5t76.5 -99.5t27.5 -142.5v-696h-106v117q-129 -141 -336 -142 q-63 0 -126 21.5t-112 63.5t-78.5 103.5t-29.5 141.5zM225 303q0 -104 74 -174t197 -70q90 0 167.5 34t131.5 102v217q-53 68 -131 102.5t-168 34.5q-123 0 -197 -69.5t-74 -176.5zM342 1319q0 39 15.5 75t42 63.5t62.5 43t77 15.5q39 0 74.5 -15.5t61 -43t41 -63.5 t15.5 -75q0 -41 -15.5 -77t-41 -62.5t-61 -42t-74.5 -15.5q-82 0 -139.5 57.5t-57.5 139.5zM408 1319q0 -53 39 -92t92 -39t91 39t38 92t-38 92t-91 39t-92 -39t-39 -92z" />
<glyph unicode="&#xe6;" horiz-adv-x="1837" d="M113 305q0 80 29.5 141.5t80.5 102.5t118 62.5t138 21.5q111 0 203 -33t164 -104v196q0 111 -80 169.5t-209 58.5q-102 0 -183 -34t-155 -112l-59 74q154 166 413 166q57 0 114.5 -12.5t106 -40t83 -72.5t45.5 -111q49 98 143 167t225 69q106 0 188.5 -42t137.5 -114 t84 -167t29 -202v-28h-777q4 -80 30 -151.5t72 -126t110.5 -85t144.5 -30.5q90 0 166.5 35.5t136.5 101.5l55 -70q-72 -78 -160 -119t-198 -41q-135 0 -240.5 65.5t-161.5 199.5q-47 -121 -153.5 -193t-245.5 -72q-82 0 -153.5 21.5t-126 63.5t-85 103.5t-30.5 141.5z M225 309q0 -106 80 -173.5t215 -67.5q74 0 134.5 26.5t102.5 69.5t65.5 98t23.5 115v33q-57 68 -142.5 103.5t-183.5 35.5q-135 0 -215 -67.5t-80 -172.5zM952 545h668q0 63 -19.5 129.5t-59.5 122t-103.5 90.5t-151.5 35q-80 0 -141.5 -35t-103.5 -89.5t-64.5 -122 t-24.5 -130.5z" />
<glyph unicode="&#xe7;" horiz-adv-x="1011" d="M109 496q0 109 33.5 203t97 164.5t152.5 110.5t198 40q129 0 210 -46t140 -122l-74 -66q-53 74 -120.5 106t-149.5 32q-86 0 -155.5 -33t-118 -89.5t-74 -134t-25.5 -165.5q0 -90 25.5 -167t74 -134.5t118 -90t155.5 -32.5q82 0 149.5 32.5t120.5 106.5l74 -66 q-57 -72 -130 -116.5t-189 -51.5l-33 -90q31 25 76 25q59 0 97 -37t38 -98q0 -72 -60.5 -116t-146.5 -44q-61 0 -115.5 17.5t-83.5 41.5l33 66q39 -31 81 -44t83 -13q53 0 93 23.5t40 68.5q0 37 -20.5 58.5t-63.5 21.5q-51 0 -82 -35l-57 33l45 122q-100 8 -181 52.5 t-137.5 113t-87 159.5t-30.5 194z" />
<glyph unicode="&#xe8;" horiz-adv-x="1161" d="M109 496q0 106 35.5 201.5t99 165t151.5 110.5t191 41q113 0 199.5 -42t146 -114t90.5 -167t31 -202v-28h-828q4 -80 32 -151.5t78 -126t119.5 -85t157.5 -30.5q94 0 177 34.5t147 102.5l55 -70q-74 -78 -169 -119t-218 -41q-109 0 -200 38t-156.5 107.5t-102 165 t-36.5 210.5zM225 545h719q0 63 -21.5 129.5t-66.5 122t-112.5 90.5t-159.5 35q-88 0 -153.5 -35t-111 -89.5t-69 -122t-25.5 -130.5zM256 1434h127l315 -295h-90z" />
<glyph unicode="&#xe9;" horiz-adv-x="1161" d="M109 496q0 106 35.5 201.5t99 165t151.5 110.5t191 41q113 0 199.5 -42t146 -114t90.5 -167t31 -202v-28h-828q4 -80 32 -151.5t78 -126t119.5 -85t157.5 -30.5q94 0 177 34.5t147 102.5l55 -70q-74 -78 -169 -119t-218 -41q-109 0 -200 38t-156.5 107.5t-102 165 t-36.5 210.5zM225 545h719q0 63 -21.5 129.5t-66.5 122t-112.5 90.5t-159.5 35q-88 0 -153.5 -35t-111 -89.5t-69 -122t-25.5 -130.5zM475 1139l315 295h127l-352 -295h-90z" />
<glyph unicode="&#xea;" horiz-adv-x="1161" d="M109 496q0 106 35.5 201.5t99 165t151.5 110.5t191 41q113 0 199.5 -42t146 -114t90.5 -167t31 -202v-28h-828q4 -80 32 -151.5t78 -126t119.5 -85t157.5 -30.5q94 0 177 34.5t147 102.5l55 -70q-74 -78 -169 -119t-218 -41q-109 0 -200 38t-156.5 107.5t-102 165 t-36.5 210.5zM225 545h719q0 63 -21.5 129.5t-66.5 122t-112.5 90.5t-159.5 35q-88 0 -153.5 -35t-111 -89.5t-69 -122t-25.5 -130.5zM334 1139l199 295h110l203 -295h-82l-176 231l-174 -231h-80z" />
<glyph unicode="&#xeb;" horiz-adv-x="1161" d="M109 496q0 106 35.5 201.5t99 165t151.5 110.5t191 41q113 0 199.5 -42t146 -114t90.5 -167t31 -202v-28h-828q4 -80 32 -151.5t78 -126t119.5 -85t157.5 -30.5q94 0 177 34.5t147 102.5l55 -70q-74 -78 -169 -119t-218 -41q-109 0 -200 38t-156.5 107.5t-102 165 t-36.5 210.5zM225 545h719q0 63 -21.5 129.5t-66.5 122t-112.5 90.5t-159.5 35q-88 0 -153.5 -35t-111 -89.5t-69 -122t-25.5 -130.5zM303 1231q0 31 22.5 53.5t52.5 22.5q31 0 53.5 -22.5t22.5 -53.5t-22.5 -53.5t-53.5 -22.5t-53 22.5t-22 53.5zM720 1231q0 31 22.5 53.5 t53.5 22.5t53.5 -22.5t22.5 -53.5t-22.5 -53.5t-53.5 -22.5t-53.5 22.5t-22.5 53.5z" />
<glyph unicode="&#xec;" horiz-adv-x="438" d="M-111 1434h127l315 -295h-90zM166 0v989h106v-989h-106z" />
<glyph unicode="&#xed;" horiz-adv-x="438" d="M109 1139l315 295h127l-352 -295h-90zM166 0v989h106v-989h-106z" />
<glyph unicode="&#xee;" horiz-adv-x="438" d="M-35 1139l199 295h110l203 -295h-82l-176 231l-174 -231h-80zM166 0v989h106v-989h-106z" />
<glyph unicode="&#xef;" horiz-adv-x="438" d="M-63 1231q0 31 22.5 53.5t52.5 22.5q31 0 53.5 -22.5t22.5 -53.5t-22.5 -53.5t-53.5 -22.5t-53 22.5t-22 53.5zM166 0v989h106v-989h-106zM354 1231q0 31 22.5 53.5t53.5 22.5t53.5 -22.5t22.5 -53.5t-22.5 -53.5t-53.5 -22.5t-53.5 22.5t-22.5 53.5z" />
<glyph unicode="&#xf0;" d="M109 487q0 109 32.5 202t93 162t144.5 107.5t186 38.5q92 0 172 -39.5t150 -138.5q-66 106 -148 192.5t-182 162.5l-291 -130l-28 70l247 109q-41 29 -82 54.5t-84 53.5l62 90q55 -35 111.5 -70.5t109.5 -76.5l223 98l29 -67l-186 -82q82 -70 154.5 -150t124.5 -170 t83 -190.5t31 -212.5q0 -111 -34 -207t-95.5 -167t-149.5 -111t-198 -40q-109 0 -196 39t-149.5 109t-96 163t-33.5 201zM223 487q0 -82 23.5 -156.5t69.5 -132t114 -92t154 -34.5q88 0 155.5 34.5t113.5 92t69.5 132.5t23.5 156q0 80 -23.5 155t-69.5 132t-113.5 92 t-155.5 35q-86 0 -154 -35t-114 -92t-69.5 -132t-23.5 -155z" />
<glyph unicode="&#xf1;" horiz-adv-x="1105" d="M166 0v989h106v-149q27 33 66 63.5t86 55t99 40t106 15.5q152 0 231.5 -77t79.5 -245v-692h-106v670q0 72 -17.5 119t-49.5 75.5t-76 41t-97 12.5q-47 0 -94 -14.5t-90 -37t-78 -54.5t-60 -64v-748h-106zM240 1147q0 57 12.5 107.5t37 87t59 58t81.5 21.5q57 0 89 -32.5 t55.5 -71.5t47.5 -72t64 -33q47 0 78 46.5t31 150.5h74q0 -57 -12.5 -107.5t-36 -87t-59.5 -58t-81 -21.5q-57 0 -90 32.5t-56.5 72.5t-47 73t-64.5 33q-47 0 -78.5 -47.5t-31.5 -151.5h-72z" />
<glyph unicode="&#xf2;" d="M109 496q0 109 33.5 203t95 164.5t149.5 110.5t197 40q111 0 198.5 -40t149 -110.5t95.5 -165t34 -202.5q0 -109 -34 -203t-95.5 -165t-149 -112t-198.5 -41q-109 0 -197 41t-149.5 112t-95 165t-33.5 203zM223 496q0 -84 23.5 -160t69.5 -135.5t114 -94t154 -34.5 q88 0 155.5 34.5t113.5 94t69.5 135.5t23.5 160q0 82 -23.5 158.5t-69.5 135t-113.5 93.5t-155.5 35q-86 0 -154 -35t-114 -93.5t-69.5 -135t-23.5 -158.5zM254 1434h127l315 -295h-90z" />
<glyph unicode="&#xf3;" d="M109 496q0 109 33.5 203t95 164.5t149.5 110.5t197 40q111 0 198.5 -40t149 -110.5t95.5 -165t34 -202.5q0 -109 -34 -203t-95.5 -165t-149 -112t-198.5 -41q-109 0 -197 41t-149.5 112t-95 165t-33.5 203zM223 496q0 -84 23.5 -160t69.5 -135.5t114 -94t154 -34.5 q88 0 155.5 34.5t113.5 94t69.5 135.5t23.5 160q0 82 -23.5 158.5t-69.5 135t-113.5 93.5t-155.5 35q-86 0 -154 -35t-114 -93.5t-69.5 -135t-23.5 -158.5zM475 1139l315 295h127l-352 -295h-90z" />
<glyph unicode="&#xf4;" d="M109 496q0 109 33.5 203t95 164.5t149.5 110.5t197 40q111 0 198.5 -40t149 -110.5t95.5 -165t34 -202.5q0 -109 -34 -203t-95.5 -165t-149 -112t-198.5 -41q-109 0 -197 41t-149.5 112t-95 165t-33.5 203zM223 496q0 -84 23.5 -160t69.5 -135.5t114 -94t154 -34.5 q88 0 155.5 34.5t113.5 94t69.5 135.5t23.5 160q0 82 -23.5 158.5t-69.5 135t-113.5 93.5t-155.5 35q-86 0 -154 -35t-114 -93.5t-69.5 -135t-23.5 -158.5zM332 1139l199 295h110l203 -295h-82l-176 231l-174 -231h-80z" />
<glyph unicode="&#xf5;" d="M109 496q0 109 33.5 203t95 164.5t149.5 110.5t197 40q111 0 198.5 -40t149 -110.5t95.5 -165t34 -202.5q0 -109 -34 -203t-95.5 -165t-149 -112t-198.5 -41q-109 0 -197 41t-149.5 112t-95 165t-33.5 203zM223 496q0 -84 23.5 -160t69.5 -135.5t114 -94t154 -34.5 q88 0 155.5 34.5t113.5 94t69.5 135.5t23.5 160q0 82 -23.5 158.5t-69.5 135t-113.5 93.5t-155.5 35q-86 0 -154 -35t-114 -93.5t-69.5 -135t-23.5 -158.5zM270 1147q0 57 12.5 107.5t37 87t59 58t81.5 21.5q57 0 89 -32.5t55.5 -71.5t47.5 -72t64 -33q47 0 78 46.5 t31 150.5h74q0 -57 -12.5 -107.5t-36 -87t-59.5 -58t-81 -21.5q-57 0 -90 32.5t-56.5 72.5t-47 73t-64.5 33q-47 0 -78.5 -47.5t-31.5 -151.5h-72z" />
<glyph unicode="&#xf6;" d="M109 496q0 109 33.5 203t95 164.5t149.5 110.5t197 40q111 0 198.5 -40t149 -110.5t95.5 -165t34 -202.5q0 -109 -34 -203t-95.5 -165t-149 -112t-198.5 -41q-109 0 -197 41t-149.5 112t-95 165t-33.5 203zM223 496q0 -84 23.5 -160t69.5 -135.5t114 -94t154 -34.5 q88 0 155.5 34.5t113.5 94t69.5 135.5t23.5 160q0 82 -23.5 158.5t-69.5 135t-113.5 93.5t-155.5 35q-86 0 -154 -35t-114 -93.5t-69.5 -135t-23.5 -158.5zM301 1231q0 31 22.5 53.5t52.5 22.5q31 0 53.5 -22.5t22.5 -53.5t-22.5 -53.5t-53.5 -22.5t-53 22.5t-22 53.5z M718 1231q0 31 22.5 53.5t53.5 22.5t53.5 -22.5t22.5 -53.5t-22.5 -53.5t-53.5 -22.5t-53.5 22.5t-22.5 53.5z" />
<glyph unicode="&#xf7;" horiz-adv-x="1046" d="M59 647v86h928v-86h-928zM442 283q0 35 23.5 58.5t58.5 23.5q33 0 56.5 -23.5t23.5 -58.5q0 -33 -23.5 -56.5t-56.5 -23.5q-35 0 -58.5 23.5t-23.5 56.5zM442 1087q0 35 23.5 57.5t58.5 22.5q33 0 56.5 -22.5t23.5 -57.5q0 -33 -23.5 -57t-56.5 -24q-35 0 -58.5 24.5 t-23.5 56.5z" />
<glyph unicode="&#xf8;" d="M109 496q0 109 33.5 203t95 164.5t149.5 110.5t197 40q82 0 151.5 -23.5t124.5 -64.5l49 63h90l-84 -108q70 -72 108 -170.5t38 -214.5q0 -109 -34 -203t-95.5 -165t-149.5 -112t-198 -41q-86 0 -158 25t-131 72l-53 -72h-90l92 121q-66 72 -100.5 168t-34.5 207z M223 496q0 -80 22.5 -154t65.5 -133l486 635q-41 35 -94.5 54.5t-118.5 19.5q-86 0 -154 -35t-114 -93.5t-69.5 -135t-23.5 -158.5zM360 156q91 -84 224 -84q88 0 155.5 34.5t113.5 94t69.5 135.5t23.5 160t-25.5 160.5t-72.5 136.5z" />
<glyph unicode="&#xf9;" horiz-adv-x="1105" d="M166 293v696h106v-672q0 -72 17.5 -119.5t49.5 -75.5t76 -39t97 -11q47 0 94 13t89 35.5t78 52.5t61 63v753h106v-989h-106v145q-61 -68 -154.5 -119t-202.5 -51q-154 0 -232.5 75t-78.5 243zM221 1434h127l315 -295h-90z" />
<glyph unicode="&#xfa;" horiz-adv-x="1105" d="M166 293v696h106v-672q0 -72 17.5 -119.5t49.5 -75.5t76 -39t97 -11q47 0 94 13t89 35.5t78 52.5t61 63v753h106v-989h-106v145q-61 -68 -154.5 -119t-202.5 -51q-154 0 -232.5 75t-78.5 243zM442 1139l315 295h127l-352 -295h-90z" />
<glyph unicode="&#xfb;" horiz-adv-x="1105" d="M166 293v696h106v-672q0 -72 17.5 -119.5t49.5 -75.5t76 -39t97 -11q47 0 94 13t89 35.5t78 52.5t61 63v753h106v-989h-106v145q-61 -68 -154.5 -119t-202.5 -51q-154 0 -232.5 75t-78.5 243zM297 1139l199 295h110l203 -295h-82l-176 231l-174 -231h-80z" />
<glyph unicode="&#xfc;" horiz-adv-x="1105" d="M166 293v696h106v-672q0 -72 17.5 -119.5t49.5 -75.5t76 -39t97 -11q47 0 94 13t89 35.5t78 52.5t61 63v753h106v-989h-106v145q-61 -68 -154.5 -119t-202.5 -51q-154 0 -232.5 75t-78.5 243zM273 1231q0 31 22.5 53.5t52.5 22.5q31 0 53.5 -22.5t22.5 -53.5t-22.5 -53.5 t-53.5 -22.5t-53 22.5t-22 53.5zM690 1231q0 31 22.5 53.5t53.5 22.5t53.5 -22.5t22.5 -53.5t-22.5 -53.5t-53.5 -22.5t-53.5 22.5t-22.5 53.5z" />
<glyph unicode="&#xfd;" horiz-adv-x="985" d="M14 989h119l361 -864l356 864h121l-512 -1206q-78 -184 -254 -184q-25 0 -54.5 4t-50.5 10l19 98q16 -8 41.5 -12t44.5 -4q49 0 85 24.5t64 96.5l78 176zM383 1139l315 295h127l-352 -295h-90z" />
<glyph unicode="&#xfe;" horiz-adv-x="1161" d="M166 -377v1743h106v-532q53 76 143.5 128t200.5 52q98 0 180.5 -36t140.5 -103.5t90 -164t32 -214.5q0 -119 -32 -215.5t-90 -164t-140.5 -104.5t-180.5 -37q-104 0 -194 49.5t-150 135.5v-537h-106zM272 252q20 -35 55 -67.5t78.5 -57.5t92.5 -40t100 -15 q82 0 146.5 32.5t109.5 89t67.5 134.5t22.5 168t-22.5 166.5t-67.5 134t-109.5 89.5t-146.5 32q-104 0 -193.5 -52.5t-132.5 -124.5v-489z" />
<glyph unicode="&#xff;" horiz-adv-x="985" d="M14 989h119l361 -864l356 864h121l-512 -1206q-78 -184 -254 -184q-25 0 -54.5 4t-50.5 10l19 98q16 -8 41.5 -12t44.5 -4q49 0 85 24.5t64 96.5l78 176zM209 1231q0 31 22.5 53.5t52.5 22.5q31 0 53.5 -22.5t22.5 -53.5t-22.5 -53.5t-53.5 -22.5t-53 22.5t-22 53.5z M626 1231q0 31 22.5 53.5t53.5 22.5t53.5 -22.5t22.5 -53.5t-22.5 -53.5t-53.5 -22.5t-53.5 22.5t-22.5 53.5z" />
<glyph unicode="&#x152;" horiz-adv-x="2283" d="M119 682q0 150 47 279t133 223t207 148t270 54q78 0 155 -19t144.5 -58t123.5 -95.5t95 -132.5v285h867v-106h-748v-506h733v-107h-733v-541h748v-106h-867v285q-39 -78 -95 -135.5t-123.5 -96.5t-144.5 -58.5t-155 -19.5q-150 0 -270.5 54.5t-206.5 149.5t-133 224 t-47 279zM242 682q0 -129 37.5 -239.5t108.5 -190.5t171 -125t225 -45q172 0 308.5 93t201.5 278v460q-66 186 -202 276.5t-308 90.5q-125 0 -225 -44t-171 -124t-108.5 -189.5t-37.5 -240.5z" />
<glyph unicode="&#x153;" horiz-adv-x="1996" d="M109 496q0 109 33.5 203t95 164.5t149.5 110.5t197 40q98 0 170.5 -33t124 -81t81 -101.5t44.5 -93.5q14 43 45.5 96t83 100t123 80t165.5 33q113 0 200 -42t146.5 -114t90 -167t30.5 -202v-28h-825q2 -80 30.5 -151.5t78 -126t119 -85t157.5 -30.5q195 0 326 137l55 -70 q-76 -78 -170 -119t-217 -41q-102 0 -178 31t-128.5 78t-85 100.5t-46.5 100.5q-16 -43 -47 -96.5t-80.5 -100.5t-122 -80t-170.5 -33q-109 0 -197 41t-149.5 112t-95 165t-33.5 203zM223 496q0 -84 24.5 -162t71 -136.5t113 -93t152.5 -34.5t153.5 34.5t113.5 93 t70.5 136.5t24.5 162t-24.5 159.5t-70.5 134t-113.5 93.5t-153.5 35t-152.5 -35t-113 -93.5t-71 -134t-24.5 -159.5zM1061 545h719q0 63 -21.5 129.5t-66.5 122t-113 90.5t-160 35q-86 0 -152.5 -35t-110.5 -89.5t-68.5 -122t-26.5 -130.5z" />
<glyph unicode="&#x178;" horiz-adv-x="1265" d="M31 1366h141l461 -672l461 672h141l-543 -782v-584h-119v584zM355 1573q0 31 22.5 53.5t52.5 22.5q31 0 53.5 -22.5t22.5 -53.5t-22.5 -53.5t-53.5 -22.5t-53 22.5t-22 53.5zM772 1573q0 31 22.5 53.5t53.5 22.5t53.5 -22.5t22.5 -53.5t-22.5 -53.5t-53.5 -22.5 t-53.5 22.5t-22.5 53.5z" />
<glyph unicode="&#x2c6;" horiz-adv-x="512" d="M0 1139l199 295h110l203 -295h-82l-176 231l-174 -231h-80z" />
<glyph unicode="&#x2dc;" horiz-adv-x="628" d="M0 1147q0 57 12.5 107.5t37 87t59 58t81.5 21.5q57 0 89 -32.5t55.5 -71.5t47.5 -72t64 -33q47 0 78 46.5t31 150.5h74q0 -57 -12.5 -107.5t-36 -87t-59.5 -58t-81 -21.5q-57 0 -90 32.5t-56.5 72.5t-47 73t-64.5 33q-47 0 -78.5 -47.5t-31.5 -151.5h-72z" />
<glyph unicode="&#x2000;" horiz-adv-x="904" />
<glyph unicode="&#x2001;" horiz-adv-x="1809" />
<glyph unicode="&#x2002;" horiz-adv-x="904" />
<glyph unicode="&#x2003;" horiz-adv-x="1809" />
<glyph unicode="&#x2004;" horiz-adv-x="603" />
<glyph unicode="&#x2005;" horiz-adv-x="452" />
<glyph unicode="&#x2006;" horiz-adv-x="301" />
<glyph unicode="&#x2007;" horiz-adv-x="301" />
<glyph unicode="&#x2008;" horiz-adv-x="226" />
<glyph unicode="&#x2009;" horiz-adv-x="361" />
<glyph unicode="&#x200a;" horiz-adv-x="100" />
<glyph unicode="&#x2010;" horiz-adv-x="614" d="M61 446v99h492v-99h-492z" />
<glyph unicode="&#x2011;" horiz-adv-x="614" d="M61 446v99h492v-99h-492z" />
<glyph unicode="&#x2012;" horiz-adv-x="614" d="M61 446v99h492v-99h-492z" />
<glyph unicode="&#x2013;" horiz-adv-x="1214" d="M61 446v99h1092v-99h-1092z" />
<glyph unicode="&#x2014;" horiz-adv-x="1705" d="M61 446v99h1584v-99h-1584z" />
<glyph unicode="&#x2018;" horiz-adv-x="448" d="M104 1108q0 86 44.5 160.5t103.5 117.5l59 -49q-49 -35 -81.5 -88t-36.5 -102q0 2 8 3t12 1q37 0 60.5 -25.5t23.5 -60.5t-25.5 -61.5t-62.5 -26.5q-41 0 -73 34t-32 97z" />
<glyph unicode="&#x2019;" horiz-adv-x="448" d="M119 1026q49 35 81.5 88t37.5 103q0 -2 -8.5 -3.5t-12.5 -1.5q-37 0 -60.5 25t-23.5 61q0 35 25.5 61.5t62.5 26.5q41 0 73 -34t32 -97q0 -86 -44 -161.5t-104 -116.5z" />
<glyph unicode="&#x201a;" horiz-adv-x="448" d="M119 -201q49 35 81.5 88.5t37.5 100.5q-4 -2 -9 -2h-12q-37 0 -60.5 24.5t-23.5 61.5q0 35 25.5 61.5t62.5 26.5q41 0 73 -34t32 -97q0 -86 -44 -162t-104 -119z" />
<glyph unicode="&#x201c;" horiz-adv-x="737" d="M123 1108q0 86 43 160.5t102 117.5l62 -49q-49 -35 -83 -88t-38 -102q2 2 10 3t12 1q35 0 58.5 -25.5t23.5 -60.5t-24.5 -61.5t-63.5 -26.5q-41 0 -71.5 34t-30.5 97zM414 1108q0 86 43 160.5t102 117.5l62 -49q-49 -35 -83 -88t-38 -102q2 2 9 3t13 1q35 0 58.5 -25.5 t23.5 -60.5t-24.5 -61.5t-63.5 -26.5q-41 0 -71.5 34t-30.5 97z" />
<glyph unicode="&#x201d;" horiz-adv-x="737" d="M119 1026q49 35 81.5 88t37.5 103q0 -2 -8.5 -3.5t-12.5 -1.5q-37 0 -60.5 25t-23.5 61q0 35 25.5 61.5t62.5 26.5q41 0 73 -34t32 -97q0 -86 -44 -161.5t-104 -116.5zM408 1026q49 35 82.5 88t37.5 103q-2 -2 -9 -3.5t-13 -1.5q-35 0 -58.5 25t-23.5 61q0 35 24.5 61.5 t63.5 26.5q41 0 71.5 -34t30.5 -97q0 -86 -43 -161.5t-102 -116.5z" />
<glyph unicode="&#x201e;" horiz-adv-x="739" d="M119 -201q49 35 81.5 88.5t37.5 100.5q-4 -2 -9 -2h-12q-37 0 -60.5 24.5t-23.5 61.5q0 35 25.5 61.5t62.5 26.5q41 0 73 -34t32 -97q0 -86 -44 -162t-104 -119zM408 -201q49 35 82.5 88.5t37.5 100.5q-2 0 -9 -1t-13 -1q-35 0 -58.5 24.5t-23.5 61.5q0 35 24.5 61.5 t63.5 26.5q41 0 71.5 -34t30.5 -97q0 -86 -43 -162t-102 -119z" />
<glyph unicode="&#x2022;" horiz-adv-x="733" d="M158 496q0 43 16 81.5t45 67.5t68 45.5t82 16.5t81.5 -16.5t67.5 -45.5t45.5 -67.5t16.5 -81.5t-16.5 -81t-45.5 -67t-67.5 -45t-81.5 -16t-82 16t-68 45t-45 67t-16 81z" />
<glyph unicode="&#x2026;" horiz-adv-x="1345" d="M133 72q0 35 26.5 61.5t63.5 26.5t63.5 -26.5t26.5 -61.5q0 -37 -26.5 -63.5t-63.5 -26.5t-63.5 26.5t-26.5 63.5zM582 72q0 35 26.5 61.5t63.5 26.5t63.5 -26.5t26.5 -61.5q0 -37 -26.5 -63.5t-63.5 -26.5t-63.5 26.5t-26.5 63.5zM1032 72q0 35 25.5 61.5t62.5 26.5 t63.5 -26.5t26.5 -61.5q0 -37 -26.5 -63.5t-63.5 -26.5t-62.5 26.5t-25.5 63.5z" />
<glyph unicode="&#x202f;" horiz-adv-x="361" />
<glyph unicode="&#x2039;" horiz-adv-x="567" d="M61 498l328 362h117l-328 -362l328 -369h-117z" />
<glyph unicode="&#x203a;" horiz-adv-x="567" d="M61 129l328 369l-328 362h117l328 -362l-328 -369h-117z" />
<glyph unicode="&#x205f;" horiz-adv-x="452" />
<glyph unicode="&#x20ac;" horiz-adv-x="1413" d="M72 496v84h96q-6 49 -6 102t6 106h-96v84h112q29 117 91.5 212.5t150.5 163t196.5 104.5t231.5 37q164 0 287 -66t211 -176l-99 -64q-66 90 -171 144.5t-228 54.5q-98 0 -185 -28.5t-158 -82t-123 -129t-79 -170.5h668v-84h-686q-6 -53 -6 -106t6 -102h686v-84h-668 q27 -94 79 -170t123 -130.5t158 -84t185 -29.5q123 0 228.5 54t170.5 145l99 -62q-92 -113 -213 -178.5t-285 -65.5q-123 0 -232.5 37t-197.5 104.5t-150.5 164t-91.5 215.5h-110z" />
<glyph unicode="&#x2122;" horiz-adv-x="929" d="M35 1313v53h311v-53h-127v-398h-57v398h-127zM420 915v451h88l131 -328l131 328h88v-451h-57v373l-154 -373h-16l-154 373v-373h-57z" />
<hkern g1="B" 	g2="quotedbl,quotesingle,registered,quoteleft,quoteright,quotedblleft,quotedblright,trademark" 	k="20" />
<hkern g1="B" 	g2="T" 	k="39" />
<hkern g1="B" 	g2="W" 	k="20" />
<hkern g1="B" 	g2="V" 	k="25" />
<hkern g1="B" 	g2="Y,Yacute,Ydieresis" 	k="61" />
<hkern g1="C,Ccedilla" 	g2="question" 	k="4" />
<hkern g1="C,Ccedilla" 	g2="W" 	k="4" />
<hkern g1="C,Ccedilla" 	g2="V" 	k="2" />
<hkern g1="C,Ccedilla" 	g2="Y,Yacute,Ydieresis" 	k="27" />
<hkern g1="C,Ccedilla" 	g2="A,Agrave,Aacute,Acircumflex,Atilde,Adieresis,Aring,AE" 	k="4" />
<hkern g1="D,O,Q,Eth,Ograve,Oacute,Ocircumflex,Otilde,Odieresis,Oslash,Thorn" 	g2="question" 	k="27" />
<hkern g1="D,O,Q,Eth,Ograve,Oacute,Ocircumflex,Otilde,Odieresis,Oslash,Thorn" 	g2="quotedbl,quotesingle,registered,quoteleft,quoteright,quotedblleft,quotedblright,trademark" 	k="20" />
<hkern g1="D,O,Q,Eth,Ograve,Oacute,Ocircumflex,Otilde,Odieresis,Oslash,Thorn" 	g2="J" 	k="41" />
<hkern g1="D,O,Q,Eth,Ograve,Oacute,Ocircumflex,Otilde,Odieresis,Oslash,Thorn" 	g2="T" 	k="59" />
<hkern g1="D,O,Q,Eth,Ograve,Oacute,Ocircumflex,Otilde,Odieresis,Oslash,Thorn" 	g2="W" 	k="41" />
<hkern g1="D,O,Q,Eth,Ograve,Oacute,Ocircumflex,Otilde,Odieresis,Oslash,Thorn" 	g2="V" 	k="41" />
<hkern g1="D,O,Q,Eth,Ograve,Oacute,Ocircumflex,Otilde,Odieresis,Oslash,Thorn" 	g2="Y,Yacute,Ydieresis" 	k="82" />
<hkern g1="D,O,Q,Eth,Ograve,Oacute,Ocircumflex,Otilde,Odieresis,Oslash,Thorn" 	g2="A,Agrave,Aacute,Acircumflex,Atilde,Adieresis,Aring,AE" 	k="80" />
<hkern g1="D,O,Q,Eth,Ograve,Oacute,Ocircumflex,Otilde,Odieresis,Oslash,Thorn" 	g2="Z" 	k="39" />
<hkern g1="D,O,Q,Eth,Ograve,Oacute,Ocircumflex,Otilde,Odieresis,Oslash,Thorn" 	g2="comma,period,quotesinglbase,quotedblbase,ellipsis" 	k="59" />
<hkern g1="D,O,Q,Eth,Ograve,Oacute,Ocircumflex,Otilde,Odieresis,Oslash,Thorn" 	g2="X" 	k="61" />
<hkern g1="F" 	g2="J" 	k="113" />
<hkern g1="F" 	g2="A,Agrave,Aacute,Acircumflex,Atilde,Adieresis,Aring,AE" 	k="68" />
<hkern g1="F" 	g2="comma,period,quotesinglbase,quotedblbase,ellipsis" 	k="102" />
<hkern g1="F" 	g2="ampersand" 	k="6" />
<hkern g1="G" 	g2="question" 	k="6" />
<hkern g1="G" 	g2="T" 	k="4" />
<hkern g1="G" 	g2="W" 	k="4" />
<hkern g1="G" 	g2="V" 	k="6" />
<hkern g1="G" 	g2="Y,Yacute,Ydieresis" 	k="10" />
<hkern g1="G" 	g2="A,Agrave,Aacute,Acircumflex,Atilde,Adieresis,Aring,AE" 	k="4" />
<hkern g1="G" 	g2="X" 	k="4" />
<hkern g1="K" 	g2="C,G,O,Q,Ccedilla,Ograve,Oacute,Ocircumflex,Otilde,Odieresis,Oslash,OE" 	k="117" />
<hkern g1="K" 	g2="Y,Yacute,Ydieresis" 	k="53" />
<hkern g1="K" 	g2="f,uniFB01,uniFB02,uniFB03,uniFB04" 	k="47" />
<hkern g1="K" 	g2="u,uni00B5,ugrave,uacute,ucircumflex,udieresis" 	k="41" />
<hkern g1="K" 	g2="t" 	k="72" />
<hkern g1="K" 	g2="w" 	k="82" />
<hkern g1="K" 	g2="v" 	k="123" />
<hkern g1="K" 	g2="y,yacute,ydieresis" 	k="123" />
<hkern g1="K" 	g2="hyphen,periodcentered,endash,emdash" 	k="102" />
<hkern g1="K" 	g2="a,agrave,aacute,acircumflex,atilde,adieresis,aring,ae" 	k="39" />
<hkern g1="K" 	g2="c,d,e,g,o,q,cent,ccedilla,egrave,eacute,ecircumflex,edieresis,eth,ograve,oacute,ocircumflex,otilde,odieresis,oslash,oe" 	k="76" />
<hkern g1="K" 	g2="x" 	k="47" />
<hkern g1="L" 	g2="question" 	k="240" />
<hkern g1="L" 	g2="quotedbl,quotesingle,registered,quoteleft,quoteright,quotedblleft,quotedblright,trademark" 	k="238" />
<hkern g1="L" 	g2="C,G,O,Q,Ccedilla,Ograve,Oacute,Ocircumflex,Otilde,Odieresis,Oslash,OE" 	k="76" />
<hkern g1="L" 	g2="asterisk" 	k="362" />
<hkern g1="L" 	g2="U,Ugrave,Uacute,Ucircumflex,Udieresis" 	k="59" />
<hkern g1="L" 	g2="T" 	k="205" />
<hkern g1="L" 	g2="W" 	k="129" />
<hkern g1="L" 	g2="V" 	k="184" />
<hkern g1="L" 	g2="Y,Yacute,Ydieresis" 	k="250" />
<hkern g1="L" 	g2="u,uni00B5,ugrave,uacute,ucircumflex,udieresis" 	k="35" />
<hkern g1="L" 	g2="t" 	k="66" />
<hkern g1="L" 	g2="w" 	k="80" />
<hkern g1="L" 	g2="v" 	k="121" />
<hkern g1="L" 	g2="y,yacute,ydieresis" 	k="121" />
<hkern g1="L" 	g2="ampersand" 	k="18" />
<hkern g1="L" 	g2="a,agrave,aacute,acircumflex,atilde,adieresis,aring,ae" 	k="35" />
<hkern g1="L" 	g2="c,d,e,g,o,q,cent,ccedilla,egrave,eacute,ecircumflex,edieresis,eth,ograve,oacute,ocircumflex,otilde,odieresis,oslash,oe" 	k="53" />
<hkern g1="P" 	g2="J" 	k="215" />
<hkern g1="P" 	g2="Y,Yacute,Ydieresis" 	k="2" />
<hkern g1="P" 	g2="A,Agrave,Aacute,Acircumflex,Atilde,Adieresis,Aring,AE" 	k="162" />
<hkern g1="P" 	g2="comma,period,quotesinglbase,quotedblbase,ellipsis" 	k="199" />
<hkern g1="P" 	g2="X" 	k="10" />
<hkern g1="P" 	g2="ampersand" 	k="47" />
<hkern g1="P" 	g2="hyphen,periodcentered,endash,emdash" 	k="76" />
<hkern g1="P" 	g2="a,agrave,aacute,acircumflex,atilde,adieresis,aring,ae" 	k="41" />
<hkern g1="P" 	g2="c,d,e,g,o,q,cent,ccedilla,egrave,eacute,ecircumflex,edieresis,eth,ograve,oacute,ocircumflex,otilde,odieresis,oslash,oe" 	k="25" />
<hkern g1="R" 	g2="quotedbl,quotesingle,registered,quoteleft,quoteright,quotedblleft,quotedblright,trademark" 	k="4" />
<hkern g1="R" 	g2="T" 	k="20" />
<hkern g1="R" 	g2="V" 	k="20" />
<hkern g1="R" 	g2="Y,Yacute,Ydieresis" 	k="31" />
<hkern g1="R" 	g2="ampersand" 	k="2" />
<hkern g1="R" 	g2="a,agrave,aacute,acircumflex,atilde,adieresis,aring,ae" 	k="41" />
<hkern g1="R" 	g2="c,d,e,g,o,q,cent,ccedilla,egrave,eacute,ecircumflex,edieresis,eth,ograve,oacute,ocircumflex,otilde,odieresis,oslash,oe" 	k="61" />
<hkern g1="R" 	g2="s" 	k="6" />
<hkern g1="S" 	g2="T" 	k="6" />
<hkern g1="S" 	g2="Y,Yacute,Ydieresis" 	k="20" />
<hkern g1="S" 	g2="t" 	k="39" />
<hkern g1="S" 	g2="w" 	k="4" />
<hkern g1="S" 	g2="v" 	k="6" />
<hkern g1="S" 	g2="y,yacute,ydieresis" 	k="6" />
<hkern g1="S" 	g2="A,Agrave,Aacute,Acircumflex,Atilde,Adieresis,Aring,AE" 	k="20" />
<hkern g1="S" 	g2="x" 	k="25" />
<hkern g1="T" 	g2="C,G,O,Q,Ccedilla,Ograve,Oacute,Ocircumflex,Otilde,Odieresis,Oslash,OE" 	k="59" />
<hkern g1="T" 	g2="J" 	k="168" />
<hkern g1="T" 	g2="S" 	k="4" />
<hkern g1="T" 	g2="f,uniFB01,uniFB02,uniFB03,uniFB04" 	k="74" />
<hkern g1="T" 	g2="u,uni00B5,ugrave,uacute,ucircumflex,udieresis" 	k="190" />
<hkern g1="T" 	g2="w" 	k="139" />
<hkern g1="T" 	g2="v" 	k="139" />
<hkern g1="T" 	g2="y,yacute,ydieresis" 	k="139" />
<hkern g1="T" 	g2="A,Agrave,Aacute,Acircumflex,Atilde,Adieresis,Aring,AE" 	k="141" />
<hkern g1="T" 	g2="comma,period,quotesinglbase,quotedblbase,ellipsis" 	k="188" />
<hkern g1="T" 	g2="ampersand" 	k="121" />
<hkern g1="T" 	g2="hyphen,periodcentered,endash,emdash" 	k="123" />
<hkern g1="T" 	g2="a,agrave,aacute,acircumflex,atilde,adieresis,aring,ae" 	k="211" />
<hkern g1="T" 	g2="c,d,e,g,o,q,cent,ccedilla,egrave,eacute,ecircumflex,edieresis,eth,ograve,oacute,ocircumflex,otilde,odieresis,oslash,oe" 	k="252" />
<hkern g1="T" 	g2="x" 	k="160" />
<hkern g1="T" 	g2="s" 	k="197" />
<hkern g1="T" 	g2="colon,semicolon" 	k="102" />
<hkern g1="T" 	g2="m,n,p,r,z,ntilde" 	k="190" />
<hkern g1="J,U,Ugrave,Uacute,Ucircumflex,Udieresis" 	g2="J" 	k="12" />
<hkern g1="J,U,Ugrave,Uacute,Ucircumflex,Udieresis" 	g2="A,Agrave,Aacute,Acircumflex,Atilde,Adieresis,Aring,AE" 	k="47" />
<hkern g1="J,U,Ugrave,Uacute,Ucircumflex,Udieresis" 	g2="comma,period,quotesinglbase,quotedblbase,ellipsis" 	k="61" />
<hkern g1="V" 	g2="C,G,O,Q,Ccedilla,Ograve,Oacute,Ocircumflex,Otilde,Odieresis,Oslash,OE" 	k="41" />
<hkern g1="V" 	g2="J" 	k="188" />
<hkern g1="V" 	g2="f,uniFB01,uniFB02,uniFB03,uniFB04" 	k="45" />
<hkern g1="V" 	g2="u,uni00B5,ugrave,uacute,ucircumflex,udieresis" 	k="74" />
<hkern g1="V" 	g2="t" 	k="25" />
<hkern g1="V" 	g2="w" 	k="6" />
<hkern g1="V" 	g2="v" 	k="25" />
<hkern g1="V" 	g2="y,yacute,ydieresis" 	k="6" />
<hkern g1="V" 	g2="A,Agrave,Aacute,Acircumflex,Atilde,Adieresis,Aring,AE" 	k="117" />
<hkern g1="V" 	g2="comma,period,quotesinglbase,quotedblbase,ellipsis" 	k="184" />
<hkern g1="V" 	g2="ampersand" 	k="51" />
<hkern g1="V" 	g2="hyphen,periodcentered,endash,emdash" 	k="106" />
<hkern g1="V" 	g2="a,agrave,aacute,acircumflex,atilde,adieresis,aring,ae" 	k="127" />
<hkern g1="V" 	g2="c,d,e,g,o,q,cent,ccedilla,egrave,eacute,ecircumflex,edieresis,eth,ograve,oacute,ocircumflex,otilde,odieresis,oslash,oe" 	k="123" />
<hkern g1="V" 	g2="x" 	k="45" />
<hkern g1="V" 	g2="s" 	k="72" />
<hkern g1="V" 	g2="m,n,p,r,z,ntilde" 	k="74" />
<hkern g1="W" 	g2="C,G,O,Q,Ccedilla,Ograve,Oacute,Ocircumflex,Otilde,Odieresis,Oslash,OE" 	k="41" />
<hkern g1="W" 	g2="J" 	k="59" />
<hkern g1="W" 	g2="f,uniFB01,uniFB02,uniFB03,uniFB04" 	k="25" />
<hkern g1="W" 	g2="u,uni00B5,ugrave,uacute,ucircumflex,udieresis" 	k="61" />
<hkern g1="W" 	g2="t" 	k="25" />
<hkern g1="W" 	g2="v" 	k="4" />
<hkern g1="W" 	g2="y,yacute,ydieresis" 	k="4" />
<hkern g1="W" 	g2="A,Agrave,Aacute,Acircumflex,Atilde,Adieresis,Aring,AE" 	k="100" />
<hkern g1="W" 	g2="comma,period,quotesinglbase,quotedblbase,ellipsis" 	k="141" />
<hkern g1="W" 	g2="ampersand" 	k="41" />
<hkern g1="W" 	g2="hyphen,periodcentered,endash,emdash" 	k="66" />
<hkern g1="W" 	g2="a,agrave,aacute,acircumflex,atilde,adieresis,aring,ae" 	k="82" />
<hkern g1="W" 	g2="c,d,e,g,o,q,cent,ccedilla,egrave,eacute,ecircumflex,edieresis,eth,ograve,oacute,ocircumflex,otilde,odieresis,oslash,oe" 	k="82" />
<hkern g1="W" 	g2="x" 	k="45" />
<hkern g1="W" 	g2="s" 	k="31" />
<hkern g1="W" 	g2="m,n,p,r,z,ntilde" 	k="61" />
<hkern g1="Y,Yacute,Ydieresis" 	g2="C,G,O,Q,Ccedilla,Ograve,Oacute,Ocircumflex,Otilde,Odieresis,Oslash,OE" 	k="82" />
<hkern g1="Y,Yacute,Ydieresis" 	g2="J" 	k="229" />
<hkern g1="Y,Yacute,Ydieresis" 	g2="S" 	k="41" />
<hkern g1="Y,Yacute,Ydieresis" 	g2="f,uniFB01,uniFB02,uniFB03,uniFB04" 	k="92" />
<hkern g1="Y,Yacute,Ydieresis" 	g2="u,uni00B5,ugrave,uacute,ucircumflex,udieresis" 	k="184" />
<hkern g1="Y,Yacute,Ydieresis" 	g2="t" 	k="47" />
<hkern g1="Y,Yacute,Ydieresis" 	g2="w" 	k="123" />
<hkern g1="Y,Yacute,Ydieresis" 	g2="v" 	k="123" />
<hkern g1="Y,Yacute,Ydieresis" 	g2="y,yacute,ydieresis" 	k="123" />
<hkern g1="Y,Yacute,Ydieresis" 	g2="A,Agrave,Aacute,Acircumflex,Atilde,Adieresis,Aring,AE" 	k="127" />
<hkern g1="Y,Yacute,Ydieresis" 	g2="comma,period,quotesinglbase,quotedblbase,ellipsis" 	k="184" />
<hkern g1="Y,Yacute,Ydieresis" 	g2="ampersand" 	k="123" />
<hkern g1="Y,Yacute,Ydieresis" 	g2="hyphen,periodcentered,endash,emdash" 	k="231" />
<hkern g1="Y,Yacute,Ydieresis" 	g2="a,agrave,aacute,acircumflex,atilde,adieresis,aring,ae" 	k="258" />
<hkern g1="Y,Yacute,Ydieresis" 	g2="c,d,e,g,o,q,cent,ccedilla,egrave,eacute,ecircumflex,edieresis,eth,ograve,oacute,ocircumflex,otilde,odieresis,oslash,oe" 	k="264" />
<hkern g1="Y,Yacute,Ydieresis" 	g2="x" 	k="147" />
<hkern g1="Y,Yacute,Ydieresis" 	g2="s" 	k="205" />
<hkern g1="Y,Yacute,Ydieresis" 	g2="colon,semicolon" 	k="113" />
<hkern g1="Y,Yacute,Ydieresis" 	g2="m,n,p,r,z,ntilde" 	k="184" />
<hkern g1="Z" 	g2="C,G,O,Q,Ccedilla,Ograve,Oacute,Ocircumflex,Otilde,Odieresis,Oslash,OE" 	k="39" />
<hkern g1="a,h,m,n,agrave,aacute,acircumflex,atilde,adieresis,aring,ntilde" 	g2="question" 	k="68" />
<hkern g1="a,h,m,n,agrave,aacute,acircumflex,atilde,adieresis,aring,ntilde" 	g2="quotedbl,quotesingle,registered,quoteleft,quoteright,quotedblleft,quotedblright,trademark" 	k="6" />
<hkern g1="a,h,m,n,agrave,aacute,acircumflex,atilde,adieresis,aring,ntilde" 	g2="T" 	k="233" />
<hkern g1="a,h,m,n,agrave,aacute,acircumflex,atilde,adieresis,aring,ntilde" 	g2="W" 	k="86" />
<hkern g1="a,h,m,n,agrave,aacute,acircumflex,atilde,adieresis,aring,ntilde" 	g2="V" 	k="129" />
<hkern g1="a,h,m,n,agrave,aacute,acircumflex,atilde,adieresis,aring,ntilde" 	g2="Y,Yacute,Ydieresis" 	k="225" />
<hkern g1="ampersand" 	g2="T" 	k="158" />
<hkern g1="ampersand" 	g2="W" 	k="111" />
<hkern g1="ampersand" 	g2="V" 	k="102" />
<hkern g1="ampersand" 	g2="Y,Yacute,Ydieresis" 	k="197" />
<hkern g1="asterisk" 	g2="J" 	k="231" />
<hkern g1="asterisk" 	g2="A,Agrave,Aacute,Acircumflex,Atilde,Adieresis,Aring,AE" 	k="217" />
<hkern g1="b,o,p,ograve,oacute,ocircumflex,otilde,odieresis,oslash,thorn" 	g2="question" 	k="88" />
<hkern g1="b,o,p,ograve,oacute,ocircumflex,otilde,odieresis,oslash,thorn" 	g2="quotedbl,quotesingle,registered,quoteleft,quoteright,quotedblleft,quotedblright,trademark" 	k="20" />
<hkern g1="b,o,p,ograve,oacute,ocircumflex,otilde,odieresis,oslash,thorn" 	g2="T" 	k="252" />
<hkern g1="b,o,p,ograve,oacute,ocircumflex,otilde,odieresis,oslash,thorn" 	g2="W" 	k="82" />
<hkern g1="b,o,p,ograve,oacute,ocircumflex,otilde,odieresis,oslash,thorn" 	g2="V" 	k="123" />
<hkern g1="b,o,p,ograve,oacute,ocircumflex,otilde,odieresis,oslash,thorn" 	g2="Y,Yacute,Ydieresis" 	k="260" />
<hkern g1="b,o,p,ograve,oacute,ocircumflex,otilde,odieresis,oslash,thorn" 	g2="comma,period,quotesinglbase,quotedblbase,ellipsis" 	k="18" />
<hkern g1="b,o,p,ograve,oacute,ocircumflex,otilde,odieresis,oslash,thorn" 	g2="x" 	k="80" />
<hkern g1="c,cent,ccedilla" 	g2="question" 	k="45" />
<hkern g1="c,cent,ccedilla" 	g2="quotedbl,quotesingle,registered,quoteleft,quoteright,quotedblleft,quotedblright,trademark" 	k="4" />
<hkern g1="c,cent,ccedilla" 	g2="T" 	k="176" />
<hkern g1="c,cent,ccedilla" 	g2="W" 	k="45" />
<hkern g1="c,cent,ccedilla" 	g2="V" 	k="68" />
<hkern g1="c,cent,ccedilla" 	g2="Y,Yacute,Ydieresis" 	k="127" />
<hkern g1="colon,semicolon" 	g2="T" 	k="102" />
<hkern g1="colon,semicolon" 	g2="Y,Yacute,Ydieresis" 	k="113" />
<hkern g1="e,ae,egrave,eacute,ecircumflex,edieresis,oe" 	g2="question" 	k="68" />
<hkern g1="e,ae,egrave,eacute,ecircumflex,edieresis,oe" 	g2="quotedbl,quotesingle,registered,quoteleft,quoteright,quotedblleft,quotedblright,trademark" 	k="4" />
<hkern g1="e,ae,egrave,eacute,ecircumflex,edieresis,oe" 	g2="asterisk" 	k="39" />
<hkern g1="e,ae,egrave,eacute,ecircumflex,edieresis,oe" 	g2="T" 	k="217" />
<hkern g1="e,ae,egrave,eacute,ecircumflex,edieresis,oe" 	g2="W" 	k="82" />
<hkern g1="e,ae,egrave,eacute,ecircumflex,edieresis,oe" 	g2="V" 	k="106" />
<hkern g1="e,ae,egrave,eacute,ecircumflex,edieresis,oe" 	g2="Y,Yacute,Ydieresis" 	k="225" />
<hkern g1="e,ae,egrave,eacute,ecircumflex,edieresis,oe" 	g2="comma,period,quotesinglbase,quotedblbase,ellipsis" 	k="18" />
<hkern g1="eth" 	g2="comma,period,quotesinglbase,quotedblbase,ellipsis" 	k="18" />
<hkern g1="f" 	g2="question" 	k="-121" />
<hkern g1="f" 	g2="quotedbl,quotesingle,registered,quoteleft,quoteright,quotedblleft,quotedblright,trademark" 	k="-141" />
<hkern g1="f" 	g2="asterisk" 	k="-141" />
<hkern g1="f" 	g2="S" 	k="-45" />
<hkern g1="f" 	g2="U,Ugrave,Uacute,Ucircumflex,Udieresis" 	k="-82" />
<hkern g1="f" 	g2="T" 	k="-82" />
<hkern g1="f" 	g2="W" 	k="-127" />
<hkern g1="f" 	g2="V" 	k="-127" />
<hkern g1="f" 	g2="Y,Yacute,Ydieresis" 	k="-109" />
<hkern g1="f" 	g2="Z" 	k="-82" />
<hkern g1="f" 	g2="comma,period,quotesinglbase,quotedblbase,ellipsis" 	k="86" />
<hkern g1="f" 	g2="X" 	k="-82" />
<hkern g1="f" 	g2="ampersand" 	k="4" />
<hkern g1="f" 	g2="exclam,B,D,E,F,H,I,K,L,M,N,P,R,Egrave,Eacute,Ecircumflex,Edieresis,Igrave,Iacute,Icircumflex,Idieresis,Eth,Ntilde" 	k="-82" />
<hkern g1="f" 	g2="parenright,bracketright,braceright" 	k="-158" />
<hkern g1="g,j,q" 	g2="question" 	k="45" />
<hkern g1="g,j,q" 	g2="T" 	k="190" />
<hkern g1="g,j,q" 	g2="W" 	k="61" />
<hkern g1="g,j,q" 	g2="V" 	k="74" />
<hkern g1="g,j,q" 	g2="Y,Yacute,Ydieresis" 	k="184" />
<hkern g1="g,j,q" 	g2="j" 	k="-88" />
<hkern g1="hyphen,periodcentered,endash,emdash" 	g2="W" 	k="66" />
<hkern g1="hyphen,periodcentered,endash,emdash" 	g2="V" 	k="106" />
<hkern g1="hyphen,periodcentered,endash,emdash" 	g2="Y,Yacute,Ydieresis" 	k="215" />
<hkern g1="hyphen,periodcentered,endash,emdash" 	g2="X" 	k="86" />
<hkern g1="k" 	g2="T" 	k="164" />
<hkern g1="k" 	g2="W" 	k="45" />
<hkern g1="k" 	g2="V" 	k="45" />
<hkern g1="k" 	g2="Y,Yacute,Ydieresis" 	k="129" />
<hkern g1="k" 	g2="bullet" 	k="59" />
<hkern g1="k" 	g2="hyphen,periodcentered,endash,emdash" 	k="59" />
<hkern g1="k" 	g2="c,d,e,g,o,q,cent,ccedilla,egrave,eacute,ecircumflex,edieresis,eth,ograve,oacute,ocircumflex,otilde,odieresis,oslash,oe" 	k="2" />
<hkern g1="comma,period,quotesinglbase,quotedblbase,ellipsis" 	g2="quotedbl,quotesingle,registered,quoteleft,quoteright,quotedblleft,quotedblright,trademark" 	k="150" />
<hkern g1="comma,period,quotesinglbase,quotedblbase,ellipsis" 	g2="U,Ugrave,Uacute,Ucircumflex,Udieresis" 	k="61" />
<hkern g1="comma,period,quotesinglbase,quotedblbase,ellipsis" 	g2="T" 	k="188" />
<hkern g1="comma,period,quotesinglbase,quotedblbase,ellipsis" 	g2="W" 	k="141" />
<hkern g1="comma,period,quotesinglbase,quotedblbase,ellipsis" 	g2="V" 	k="182" />
<hkern g1="comma,period,quotesinglbase,quotedblbase,ellipsis" 	g2="Y,Yacute,Ydieresis" 	k="184" />
<hkern g1="comma,period,quotesinglbase,quotedblbase,ellipsis" 	g2="f,uniFB01,uniFB02,uniFB03,uniFB04" 	k="45" />
<hkern g1="comma,period,quotesinglbase,quotedblbase,ellipsis" 	g2="t" 	k="45" />
<hkern g1="comma,period,quotesinglbase,quotedblbase,ellipsis" 	g2="w" 	k="96" />
<hkern g1="comma,period,quotesinglbase,quotedblbase,ellipsis" 	g2="v" 	k="141" />
<hkern g1="comma,period,quotesinglbase,quotedblbase,ellipsis" 	g2="y,yacute,ydieresis" 	k="121" />
<hkern g1="comma,period,quotesinglbase,quotedblbase,ellipsis" 	g2="c,d,e,g,o,q,cent,ccedilla,egrave,eacute,ecircumflex,edieresis,eth,ograve,oacute,ocircumflex,otilde,odieresis,oslash,oe" 	k="18" />
<hkern g1="comma,period,quotesinglbase,quotedblbase,ellipsis" 	g2="j" 	k="-82" />
<hkern g1="comma,period,quotesinglbase,quotedblbase,ellipsis" 	g2="seven" 	k="129" />
<hkern g1="comma,period,quotesinglbase,quotedblbase,ellipsis" 	g2="one" 	k="141" />
<hkern g1="comma,period,quotesinglbase,quotedblbase,ellipsis" 	g2="zero,six" 	k="74" />
<hkern g1="questiondown" 	g2="j" 	k="-328" />
<hkern g1="quotedbl,quotesingle,quoteleft,quoteright,quotedblleft,quotedblright" 	g2="C,G,O,Q,Ccedilla,Ograve,Oacute,Ocircumflex,Otilde,Odieresis,Oslash,OE" 	k="4" />
<hkern g1="quotedbl,quotesingle,quoteleft,quoteright,quotedblleft,quotedblright" 	g2="J" 	k="176" />
<hkern g1="quotedbl,quotesingle,quoteleft,quoteright,quotedblleft,quotedblright" 	g2="A,Agrave,Aacute,Acircumflex,Atilde,Adieresis,Aring,AE" 	k="219" />
<hkern g1="quotedbl,quotesingle,quoteleft,quoteright,quotedblleft,quotedblright" 	g2="comma,period,quotesinglbase,quotedblbase,ellipsis" 	k="150" />
<hkern g1="quotedbl,quotesingle,quoteleft,quoteright,quotedblleft,quotedblright" 	g2="s" 	k="61" />
<hkern g1="r" 	g2="T" 	k="111" />
<hkern g1="r" 	g2="W" 	k="6" />
<hkern g1="r" 	g2="V" 	k="45" />
<hkern g1="r" 	g2="Y,Yacute,Ydieresis" 	k="102" />
<hkern g1="r" 	g2="comma,period,quotesinglbase,quotedblbase,ellipsis" 	k="168" />
<hkern g1="r" 	g2="X" 	k="10" />
<hkern g1="s" 	g2="question" 	k="86" />
<hkern g1="s" 	g2="quotedbl,quotesingle,registered,quoteleft,quoteright,quotedblleft,quotedblright,trademark" 	k="41" />
<hkern g1="s" 	g2="T" 	k="193" />
<hkern g1="s" 	g2="W" 	k="72" />
<hkern g1="s" 	g2="V" 	k="86" />
<hkern g1="s" 	g2="Y,Yacute,Ydieresis" 	k="188" />
<hkern g1="s" 	g2="X" 	k="4" />
<hkern g1="t" 	g2="T" 	k="125" />
<hkern g1="t" 	g2="W" 	k="25" />
<hkern g1="t" 	g2="V" 	k="47" />
<hkern g1="t" 	g2="Y,Yacute,Ydieresis" 	k="66" />
<hkern g1="u,z,uni00B5,ugrave,uacute,ucircumflex,udieresis" 	g2="question" 	k="45" />
<hkern g1="u,z,uni00B5,ugrave,uacute,ucircumflex,udieresis" 	g2="T" 	k="190" />
<hkern g1="u,z,uni00B5,ugrave,uacute,ucircumflex,udieresis" 	g2="W" 	k="61" />
<hkern g1="u,z,uni00B5,ugrave,uacute,ucircumflex,udieresis" 	g2="V" 	k="74" />
<hkern g1="u,z,uni00B5,ugrave,uacute,ucircumflex,udieresis" 	g2="Y,Yacute,Ydieresis" 	k="184" />
<hkern g1="v" 	g2="T" 	k="139" />
<hkern g1="v" 	g2="W" 	k="4" />
<hkern g1="v" 	g2="V" 	k="25" />
<hkern g1="v" 	g2="Y,Yacute,Ydieresis" 	k="123" />
<hkern g1="v" 	g2="A,Agrave,Aacute,Acircumflex,Atilde,Adieresis,Aring,AE" 	k="41" />
<hkern g1="v" 	g2="comma,period,quotesinglbase,quotedblbase,ellipsis" 	k="141" />
<hkern g1="v" 	g2="X" 	k="80" />
<hkern g1="w" 	g2="T" 	k="139" />
<hkern g1="w" 	g2="V" 	k="6" />
<hkern g1="w" 	g2="Y,Yacute,Ydieresis" 	k="123" />
<hkern g1="w" 	g2="A,Agrave,Aacute,Acircumflex,Atilde,Adieresis,Aring,AE" 	k="39" />
<hkern g1="w" 	g2="comma,period,quotesinglbase,quotedblbase,ellipsis" 	k="96" />
<hkern g1="w" 	g2="X" 	k="96" />
<hkern g1="y,yacute,ydieresis" 	g2="question" 	k="4" />
<hkern g1="y,yacute,ydieresis" 	g2="T" 	k="139" />
<hkern g1="y,yacute,ydieresis" 	g2="W" 	k="4" />
<hkern g1="y,yacute,ydieresis" 	g2="V" 	k="6" />
<hkern g1="y,yacute,ydieresis" 	g2="Y,Yacute,Ydieresis" 	k="123" />
<hkern g1="y,yacute,ydieresis" 	g2="A,Agrave,Aacute,Acircumflex,Atilde,Adieresis,Aring,AE" 	k="41" />
<hkern g1="y,yacute,ydieresis" 	g2="comma,period,quotesinglbase,quotedblbase,ellipsis" 	k="121" />
<hkern g1="y,yacute,ydieresis" 	g2="X" 	k="80" />
<hkern g1="X" 	g2="C,G,O,Q,Ccedilla,Ograve,Oacute,Ocircumflex,Otilde,Odieresis,Oslash,OE" 	k="61" />
<hkern g1="X" 	g2="f,uniFB01,uniFB02,uniFB03,uniFB04" 	k="61" />
<hkern g1="X" 	g2="t" 	k="61" />
<hkern g1="X" 	g2="w" 	k="96" />
<hkern g1="X" 	g2="v" 	k="80" />
<hkern g1="X" 	g2="y,yacute,ydieresis" 	k="80" />
<hkern g1="X" 	g2="hyphen,periodcentered,endash,emdash" 	k="86" />
<hkern g1="zero,nine" 	g2="comma,period,quotesinglbase,quotedblbase,ellipsis" 	k="74" />
<hkern g1="seven" 	g2="comma,period,quotesinglbase,quotedblbase,ellipsis" 	k="203" />
<hkern g1="x" 	g2="T" 	k="160" />
<hkern g1="x" 	g2="W" 	k="45" />
<hkern g1="x" 	g2="V" 	k="45" />
<hkern g1="x" 	g2="Y,Yacute,Ydieresis" 	k="147" />
<hkern g1="x" 	g2="c,d,e,g,o,q,cent,ccedilla,egrave,eacute,ecircumflex,edieresis,eth,ograve,oacute,ocircumflex,otilde,odieresis,oslash,oe" 	k="80" />
<hkern g1="parenleft,bracketleft,braceleft" 	g2="j" 	k="-225" />
</font>
</defs></svg> 